Name;Head;Full address;Phone
Abercorn School;;St John's Wood, London, , ;
Abingdon House School;Mr Nick Rees;4 - 6 Abingdon Road, London, , W8 6AF;
Abroad;;, , , ;
Aiglon International College;;Switzerland, , , ;
Aldenham Preparatory School;Mr J C Fowler;Elstree, Herts, , WD6 3AJ;01923 851664
All Hallows;;Somerset, , , ;
Allen Stevenson School;;132 East 78th Street, New York, USA, NY 1002;
Allfarthing Primary School;Ms Veronica Bradbury;St Ann's Crescent, London, , SW18 2LR;020 8874 1301
Ashmole Primary School;Mr John Park;Ashmole Street, London, , SW8 1NT;0020 7735 2419
Asquith Nursery;;, , , ;
Avenue House School;Mrs Carolyn Self;70 The Avenue, London, , SW13 8LS;
Barlby Primary School;;Ladbroke Grove, , , W10 6BH;020 8969 3988
Bassett House School;Mrs Andrea Harris;60 Bassett Road, London, , W10 6JP;020 8969 0313
Battersea Day Nursery;;Battersea, , , SW11 2DX;020 7288 7008
Bearwood College;;, , , ;
Beaudesert School;;, , , ;
Bermondsey Community School;;60 Gainsford Street, London, , SE1 2NY;
Bishops Gilpin;;Lake Road, London, , SW9 7EP;
Bishops Nursery;;Fulham Palace Road, London, , SW6;
Blundells Day Nursery;;Battersea, , , SW11 5BW;020 7924 4204
Blundells Nursery;;St Mary's Park, Wandsworth, London, SW11 3ND;
Boltons Nursery School;Miss Paul David;262b Fulham Road, London, , SW10 9EL;020 7351 6993
Bousfield Primary School;Ms C Cooling;South Bolton Gardens, London, , SW5 0JB;020 7373 6544
Bridge Lane Montessori;;United Reform Church, , , SW11 3AD;020 7738 0509
Bright Horizons;;, , , SW1V 2PT;
Broomwood Hall;Ms Carole Jenkinson, Head of Upper School;68 - 74 Nightingale Lane, London, , SW12 8NR;
Bumble Bee School;;Lavender Hill, , , SW11 5TU;020 7350 2970
Burntwood School;;Burntwood Lane, Tooting, London, SW17 0AQ;020 8946 6201
Busy Bee Nursery School;Dr S Corbett;19 Lytton Grove, Putney, London, SW15 2EZ;020 8789 0132
Bute House;Mrs Sally Salvidant;Luxembourg Gardens, London, , W6 7EA;
Camberwell Grove Early Years Centre;;195E Camberwell Grove, London, , SE5 8JU;
Cameron House School;Mrs Lucie Moore;4 The Vale, London, , SW3 6AH;020 7352 4040
Caterpillar Nursery School;;Balham, , , SW12 8JL;020 8673 6058
Cheam School;Mr M R Johnson;Headley, Newbury, Berkshire, RG19 8LD;01635 268381
Chelsea Kindergarten;;St Andrews Church, Park Walk, Chelsea, London, SW10 0AU;020 7352 4856
Chelsea Open Air Nursery;;Glebe Place, London, , SW3 5JE;020 7352 4501
Chiswick & Bedford Park School;Mrs Catherine Sutherland;Priory House, Priory Avenue, London, , W4  1TX;
Christ Church Primary School;Ms A Kendall;1 Robinson Street, Chelsea, London, SW3 4AA;020 7352 5708
Clapham Day Nursery;;Clapham, , , SW8 3BW;020 7498 3165
Cobham Hall;Mr Paul Mitchell;Cobham, Kent, , DA12 3BL;
Colet Court;Mr Tim Meunier;Lonsdale Road, London, , SW13 9JT;
Connaught House;Mrs Hampton;47 Connaught Square, London, , W2 1PN;020 7262 8830
Cranleigh Preparatory School;Mr Michael Roulston;Cranleigh, Surrey, , GU6 8QH;01483 273666
Dawmouse;;St Peters Church Hall, St Peters Terrace, Fulham, SW6 7JS;020 7835 5731
Deutsche Schule;;, , , ;
Devonshire House;Mrs Stephanie Piper;2 Arkwright Road, London, , NW3 6AE;
Dulwich Prep Cranbrook;;, , , ;
Dunhurst;;Bedales Prep School, , , ;
Earlsfield Primary School;Mr Stephen Trow;Tranmere Road, London, , SW18 3QQ;020 8946 5452
Earslfield Primary School Nursery;;, , , ;
Eaton House School;Miss Lucy Watts;3-5 Eaton Gate, , , SW1W 9BA;020 7730 9343
Eaton House The Manor Girls' School;Mrs Susie Lang;58 Clapham Common Northside, London, , SW4 9RU;
Eaton House the Manor;Mr Sebastian Hepher;58 Clapham Common Northside, , , SW4 9RU;020 7924 6000
Eaton House the Vale;Mr Robin Greenwood;Elvaston Place, London, , SW7 5QH;020 7584 9515
Eaton Square Preparatory School;Mr Paul David;79 Eccleston Square, , , SW1V 1PP;020 7931 9469
Ecole Francaise de Londres;;59 Brook Green, London, , W6 7BE;020 7602 6871
Ecole Internationale de Geneve;;, , , ;
Ecole Primaire Lycee Charles de Gaulle;Mme Valette;35 Cromwell Road, London, , SW7 2DG;020 7584 6322
Emerson House;Miss Jane Emerson;40 Redmore Road, London, , W6 0HZ;
Eridge House;Mr Peter Rixham;1 Fulham Park Road, London, , SW6 4LJ;020 7471 4816
Eveline Day Nursery;;Wandsworth, , , SW18 2NR;020 8870 0966
Fairley House School;Mrs Jackie Murray;30 Causton Street, London, , SW1P 4AU;
Falkner House School;Mrs Anita Griggs;19 Brechin Place, London, , SW7 4QB;020 7373 4501
Farleigh House School;Father Simon Everson;Red Rice, Andover, Hampshire, SP6;01264 710766
Finton House School;Mr Adrian Floyd;170 - 171 Trinity Road, London, , SW17 7HL;020 8682 0921
Fox Primary School;Mr Paul Cotter;Kensington Place, London, , W8 7PP;020 7727 7637
Francis Holland School, Regent's Park;Mrs V M Durham;Clarence Gate, Ivor Place, London, NW1 6XR;020 7723 0176
Francis Holland School, SW1;Miss Stephanie Pattenden;39 Graham Terrace, London, , SW1W 8JF;
French Nursery;;Belgravia, , , ;
Fulham Prep School;Mrs Jane Emmett;200 Greyhound Road, London, , W14 9SD;020 7386 2444
Garden House School for Boys;Mr Christian Warland;Turk's Row, London, , SW3 4TW;020 7730 6652
Garden House School for Girls;Mrs Janet Webb) & Mrs Wendy Challen;Turk's Row, London, , SW3 4TW;020 7730 1652
Gateway House Nursery School;;40 Jessica Road, London, , SW18 2QN;
Glendower Preparatory School;Mrs Rosalind Bowman;87 Queen's Gate, London, , SW7 5JX;020 7370 1927
Green Farms Academy;;, , , ;
Green Gables Montessori;Ms Grace Ivory;St Georges in the East Church, The Highway, Wapping, London, E1;020 7488 2374
Greenway Kindergarten;;Ashton Playing Fields, Woodford Green, Essex, ;
Gwendolen House Nursery School;;Putney, , , SW15 6EP;020 8704 1107
Hampshire School;;Knightsbridge, , , SW7 1NH;020 7584 3297
Happy Times Nursery School;;40 Parkgate Road (entrance in Juer Street), Battersea, London, SW11 4NP;020 7350 5959
Hawkesdown House;;Notting Hill, London, , W8 7PN;020 7727 9090
Hawkesdown House School;Mrs Christine Leslie;27 Edge Street, London, , W8 7PN;
Hill House School;Mr Richard Townend;Hans Place, London, , SW1X 0EP;020 7584 1331
Holland Park Pre-Prep School;;5 Holland Road, London, , W14 8HJ;
Home From Home;Juliette Schott;35 Cathcart Road, , , ;020 7352 2630
Hotham School;;Charlwood Road, Wandsworth, , SW15 1PN;020 8788 6468
Hurlingham School;Mrs Val Willmott;122 Putney Bridge Road, London, , SW15 2NQ;
Imperial College Education Centre;;, , , ;
Imperial Wharf;;Fulham, , , SW6 2AN;020 7731 9130
Indo-Chinese Little Rainbow Nursery;Ms Diane Tran;33 Clyde Street, London, , SE8 5LW;020 8692 2772
Internationals School of the Sacred Heart;Ms Kristen Moriarty;4 - 3 - 1 Hiroo, Shibuya-ku, Tokyo, JAPAN 150 - 0012, ;81334005549
Iverna Gardens Nursery School;Ms Felicity Marrian;Armenian Church Hall, Iverna Gardens, London, W8 6TP;020 7565 0850
James Allen's Preparatory School;Miss Finola Stack;East Dulwich Grove, London, , SE22 8TE;
Jezel Ali Primary School;;DUBAI, , , ;
John Betts School;G del Bravo;Paddenswick Road, London, , W6 0JA;020 8748 2465
Just Learning;;, , , ;
Kensington Prep School;Mrs Prudence Lynch;596 Fulham Road, London, , SW6 5PA;020 7731 9300
Kew Green Preparatory School;Mrs Maria Gardener;Layton House, Ferry Lane, Richmond, TW9 3AF;
Kiddi Caru International;;, , , ;
Kids Unlimited;;, , , ;
King Alfred's School;;, , , ;
Knightsbridge Nursery School;;Knightsbridge, London, , SW1X 0BD;020 7590 9000
Knightsbridge School;Mr Magoo Giles;67 Pont Street, London, , SW1X 0BD;020 7581 5044
L'Ecole des Petits, Battersea;;Trott Street, London, , SW11 3DS;020 7924 3186
L'Ecole des Petits, Fulham;;2 Hazlebury Road, London, , SW6 2NB;020 7371 8350
L'Ecole du Parc;;, , , ;
L:'Ecole Bilingue;V Faerie;24 Collingham Road, London, , SW5 0LX;020 7835 1144
Ladbroke Square Montessorie School;;, , , ;
Ladybird Nursery School;Miss Fanny Ward;The Crypt, St Judes Church, 24 Collingham Road, London, SW5 0LX;020 7244 7771
Lancing College;Mr J W J Gillespie;Lancing, West Sussex, , BN15 0RW;01273 452213
Latymer Preparatory School;Mr Stuart Dorrian;36 Upper Mall, London, , W6 9TA;
Lion House School;;Putney, , , SW15 6EH;020 8780 9446
Little Angels Nursery;Ms Cal Meyrick;217 Blackstock Road, London, , N5 1EB;020 7226 2727
Little Cherubs Nursery School;;Abingdon Road, London, , W8;
Little Herons Nursery;;50 Bank Street, London, , ;020 7719 0719
Little House Nursery;Rachel;Hile Place, London, , SW1;020 7592 0195
Little People of Fulham;;, , , ;
Little Unicorn Day Nursery;;Columbus Courtyard, Canary Wharf, London, E14;
Ludgrove School;;, , , ;
Macaulay School;Mrs E M Divall;Victoria Rise, Clapham, London, SW4 ONU;020 7622 1355
Maria Montessori Children's House;;26 Lyndhurst Gardens, London, , NW3 5NW;
Marmalade Cat Nursery School;;1 Altenburg Gardens, London, SW11, ;
Melrose House Nursery School;;55 Finlay Street, Hammersmith, London, SW6 6HF;020 7736 9296
Mendham Country Day School;;Basking Ridge, New Jersey, UNITED STATES OF AMERICA, ;
Merlin School;Mrs Kate Prest;4 Carlton Drive, , , SW15 2BZ;020 8788 2769
Miss Daisy's Nursery;Ms Daisy Harrison;Foutain Court Club Room, Ebury Square, London, SW1W 9SU;020 7730 5797
Miss Willcocks Nursery School;;, , , ;
Montessori Neighbourhood Nursery;;181 - 183 Towermead Road, London, , SW6 2JX;
Montessori Nursery School Barnes;;, , , ;
Mouse House Montessori Nursery;;Wandworth Common nr Northcote Road, , , SW11 1BW;01622 833331
My Nursery;;3 Newport Avenue, Virginia Quay, Docklands, London, E14 2ED;
My Nursery;;, , , ;
Newton Prep School;Mr Nicholas M Allen;149 Battersea Park Road, Battersea, London, SW8 4BX;020 7720 4091
Nightingale Montessori Nursery School;;St Luke's Church Hall, , , SW12 8RQ;020 8675 8070
Nishimachi International School;Ms Julie Jackson-Jin;2 - 14 - 7 Moto Azobu, Minato-ku, Tokyo 106-0046, JAPAN, ;81334515520
Noah's Ark Nursery, Balham;;Balham, , , SW12 8JL;020 7924 3472
Noah's Ark Nursery, Battersea;;Battersea, , , SW11 6QW;020 7924 3472
Noah's Ark Nursery, Wandworth;;Wandsworth, , , SW18 2ED;020 7924 3472
Norland Place School;Mr Patrick Mattar;162 - 166 Holland Park Avenue, London, , W11 4UH;
Northcote Lodge;Mr John Hansford;26 Bolingbroke Grove, London, , SW11 6EL;020 8682 8800
Notting Hill Preparatory School;Mrs Jane Cameron;95 Lancaster Road, London, , W11 1QQ;020 7221 0727
Oaktree Nursery School;Ms Annabel Dixon;89 Ellerton Road, London, , SW18 3NH;020 8870 8441
Oliver House Nursery;;Clapham Common, , , SW4 9AH;020 8772 1911
Orchard House School;Mrs Sally Hobbs;16 Newton Grove, London, , W4 1LB;
Our Lady of Victories Primary School;;, , , ;
Paddington Public School;Ms Sue Mootz;Oxford Street, Paddington NSW 2021, Australia, ;61293616730
Paint Pots Nursery School;;Bayswater, London, , W2 5LS;020 7792 0433
Park Gardens;;Wandle Recreation Centre, Garratt London, SW18, ;
Park Gardens Nursery;;The Wandle Recreation Centre, Mapleton Road, London, SW18 4DN;
Park Walk Nursery;;King's Road, London, , SW10 0AY;020 7352 8700
Parkgate House School;;Clapham Common Northside, , , SW4 9SD;020 7350 2452
Pelican Nursery;;, , , ;
Pembridge Hall;Mrs Marsden;10 Pembridge Square, London, , W11;020 7229 0121
Pembridge Hall School;Mrs Elizabeth Marsden;18 Pembridge Square, London, , W2 4EH;
Peques Anglo Spanish Nursery;;, , , ;
Pippa Pop Ins;;165 New Kings Road, London, , SW6 4SN;020 7731 1445
Pixies Nursery School;;Compton Place Road, , , BN21 1EA;01323 410645
Pooh Corner Kindergarten;;Emperor's Gate, London, , SW7 4HJ;01622 833331
Port Regis School;;, , , ;
Prospect House School;Mrs Dianne Barratt;75 Putney Hill, London, , SW15 3NT;
Puffins Nursery School;Ms Fiona Talbot-Smith;60 Hugon Road, London, , SW6 3EN;020 7736 7442
Purple Dragon Nursery School;;, , , ;
Putney High School;Dr Denise V Lodge;35 Putney Hill, London, , SW15 6BH;020 8788 4886
Putney Park School;Mrs Jane Irving;Woodborough Road, London, , SW15 6PY;
Queen's College Preparatory School;Mrs Annie Dempsey;61 Portland Place, London, , W1B 1QP;
Queen's Gate School;Mrs R M Kamaryc;133 Queen's Gate, Kensington, London, SW7 5LE;020 7589 3587
Queensberry Nursery;;29 Queensberry Place, London, , SW7 2DS;020 7581 0200
Ravenscourt Park Road;Mr Robert Relton;16 Ravenscourt Avenue, London, , W6 0SL;
Ravenstone School;Mrs Liz Heath;, , , ;
Red Balloon Nursery School;Ms Sally Jackson;27 School Street, Carlisle, , MA 01741;978 371 7023
Redcliffe School;Mrs Susan Bourne;47 Redcliffe Gardens, London, , SW10 9JH;020 8866 0660
Repton School;;Repton, Derbyshire, , DE65 6FH;01283 559200
Richford Street Day Nursery;;Hammersmith, , , W6 7HZ;020 7736 1015
Ringrose Kindergarten Pimlico;;32 Lupus Street, London, , SW1V 3DZ;020 7976 6511
Ripples Nursery School;;, , , ;
Riverhouse Montessori School;Ms Sarah Greenwood;15 - 16 Heron Quay, London, , E14 4JB;020 7538 9886
Riverside Nursery;;Juniper Drive, Battersea Reach, London, SW18 1TA;
Rolfe's Nursery School;;Kensington, London, , W11 1NR;020 7727 8300
Sacred Heart Primary School;;Este Road, Battersea, , SW11 2TD;020 7223 5611
Saint David's;Miss O'Donnell;12E 89th Street, New York, NY 10128, UNITED STATES OF AMERICA, ;
Sauveterre;;, , , ;
Seahorses Montessori School;;2 St Ethelreda's Church Hall, Cloncurry Street, London, SW6 5EB;020 7471 4816
Sinclair House School;;Muster Road, , , SW6 6DA;020 7736 9182
Sir James Henderson School;Ms Dean;Via Pisani Dossi 16, Milan, Italy, 20134;3902210941
Somerset Nursery School;;157 Battersea Church Road, London, , SW11 3ND;020 7223 5455
Southbank International School;;36 - 38 Kensington Park Road, London, , W11 3BU;
Square One Nursery;;12 Ravenna Road, London, , SW15 6AW;020 8788 1546
St Andrews Montessori;;St Andrew's Church, Thornhill Square, London, N1 1BQ;
St Augustine's RC Primary School;;Disbrowe Road, London, , W6 8QE;
St Barnabus & St Philip Church of England Primary School;;, , , ;
St Bartholomew's Community Pre-School;;St Bartholomew's Church Hall, Westwood Hill, Sydenham, ;020 8776 5722
St Catherine's British Embassy School;;Athens, , , ;
St Cecilia's School;;, , , ;
St Christopher's School;Mrs Susie West;32 Belsize Lane, London, , NW3 5AE;
St Gabriel's CE Primary School;Mrs J Abbott;Tonge Roughs, Aspinall Street, Middleton, M24 2BE;
St George's School;;Hanover Square, London, , W1;
St George's School, Ascot;Mrs Caroline Jordan;Ascot, Berkshire, , SL5 7DZ;
St James Independent School for Junior Boys & Girls;Mr Paul Moss;Earsby Street, London, , W14 8SH;020 7348 1777
St Joseph's RC Primary School;;90 Oakhill Road, London, , SW15 2QD;
St Mary Abbots School;;, , , W8;
St Nicholas Montessori;;Kensington, London, , SW7 1PT;020 7225 1277
St Nicholas Prep School;;Kensington, London, , SW7 1PT;020 7225 1277
St Peter's Primary School;;Eaton Square, , , ;
St Philip & St James Primary School;;Oxford, , , ;
St Philip's Preparatory School;Mr Harry Biggs-Davison;6 Wetherby Place, London, , SW7 4NE;
St Vincent de Paul RC Primary School;;Morpeth Terrace, London, , SW1P 1EP;
Strawberry Fields Nursery Schooll;;Notting Hill Community Church, Kensington Park Road, London, W11 2ES;
Streatham and Clapham High School;Mrs Susan Mitchell;42 Abbotswood Road, Streatham, London, SW16 1AW;020 8677 8400
Summer Fields;;, , , ;
Sussex House;Mr Nicholas Kaye;68 Cadogan Square, London, , SW1X 0EA;020 7584 1741
Swaffield School;Mrs Lilley;St Ann's Hill, London, , SW18;020 8874 2825
Tadpoles Nursery;;Park Walk, London, , SW10 0AY;020 7352 9757
Tanglin Trust School;;Singapore, , , ;
Teddies Nurseries Balham;;Balham, , , SW17 7AJ;020 8672 4809
Teddies Southfields;;, , , ;
The American School in London;;, , , ;
The British Embassy School Athens;;Athens, , , ;
The British School Riyadh;;PO Box 85769, Riyadh, 11612, Saudi Arabia, ;
The British School of Boston;Ann McPhee;416 Pond Street, Boston, MA 02130, USA, ;1 617 522 2261
The Castle;;20 Henfield Road, London, , SW19 3HU;
The Dexter School;;20 Newton Street, Brookline, USA, MA 02445-7498;612 522 5544
The Dragon School;Mr John Baugh;Bardwell Road, Oxford, , OX2 6SS;
The Falcons;Mr Barry Evans;2 Burnaby Gardens, London, , W4 3DT;
The French International School;;Shops 2-4 G/R, Tung Fai Gardens, 17 Po Yan Street, Sheung Wan, Hong Kong, ;
The French Lycee;;Beirut, , , ;
The Gardens Nursery School;;62 Standen Road, London, , SW18 5TG;
The German Kindergarten;;, , , ;
The Godolphin School;Miss M J Horsburgh;Milford Hill, Salisbury, , SP1 2RA;01722 430500
The Harrodian School;Mr James Hooke;Lonsdale Road, London, , SW13 9QN;
The Hawthorns School;;Pendell Court, Blethlingley, Surrey, RH1 4QH;
The Little Group;Ms Judy Gilham;Rosebank, Epsom, Surrey, ;01372 720218
The Little Red Hen;;2 Grant Road, London, , SW11 2NU;020 7738 0321
The Little Tug Boat Nursery;Claire & Sadie;3 Finlay Street, Fulham, London, SW6 6HE;020 7731 6648
The Oratory Primary School;;Cale Street, London, , SW3;
The Oval Montessori Nursery;;15 Carmont Road, London, , SE5 9RA;
The Park Nursery School;;Battersea Park Road, , , SW11 4LH;01622 833331
The Perse School;;Cambridge, , , ;
The Reay Primary School;Ms Liz Tennant;Hackford, Lambeth, London, SW9 0EN;020 7735 2978
The Roche School;Carmen & James Roche;11 Frogmore, Wandsworth, London, SW18 1HW;020 8877 0823
The Studio;Ms Janet C Rotter;117 West 95th Street, New York, NY, 10025;212 678 2416
The Willow School;;, , , ;
Thomas's Clapham;Mrs Carol Evelegh;Broomwood Road, London, , SW11;
Thomas's Fulham;Miss Annette Dobson;Hugon Road, London, , SW6 3ES;020 7751 8200
Thomas's Kensington;Mrs Diana Maine;17-19 Cottesmore Gardens, London, , W8 5PR;020 7361 6500
Thomas's Kindergarten Battersea;Miss Iona Jennings;Battersea Church Road, , , SW11 3NA;020 7738 0400
Thomas's Kindergarten, Pimlico;Miss Tamara Spierenburg;14 Ranelagh Grove, London, , SW1W 8PD;020 7730 3596
Tiggers Nursery School;;, , , ;
Tilford Meadow Nursery School;;, , , ;
Toad Hall School;;37 St Mary's Gardens, Kennington, London, SE11 4UF;020 7735 5087
Tonbridge School;Mr T H P Haynes;Tonbridge, Kent, , TN9 1JP;01732 365555
Tree Top Nursery, Cumnor House;;, , , ;
Trevor Roberts;Mr C Trevor-Roberts;55/57 Eton Avenue, London, , NW3 3ET;020 7586 1444
Tudor Hall School;Miss Wendy Griffiths;Wykham Park, Banbury, Oxfordshire, OX16 9UR;01295 263434
Twice Times Montessori School;;The Cricket Pavilion, South Park, Hammersmith & Fulham, London, SW6 3AF;020 7731 4929
United Nations International School;Dr Laud, Middle School Learning Specialist;24 - 50 FDR Drive, New York, NY 10010-4046, New York, USA;
Victoria Road Montessori School;;1 Coulson Street, London, , SW3 3NG;
Vinehall School;;, , , ;
Violet Melchett Nursery School;;, , , ;
Wee Ones Nursery School;Mrs Edwina Angell-James;St Ann's Church Hall, St Ann's Crescent, Wandsworth, London, SW18 2RS;020 8870 7729
Wellesley House School;;, , , ;
Westminster Cathedral Choir School;Mr Neil McLaughlan;Ambrosden Avenue, London, , SW1P 1QH;020 7798 9081
Westminster Under School;Mr Jeremy Edwards;27 Vincent Square, London, , SW1P 2NN;
Wetherby School;Mr Mark Snell;11 Pembridge Square, London, , W2 4ED;020 7727 9581
Willow Nursery;;Wandsworth Road, London, SW9, ;
Wimbledon High School GDST;Mts P H Wilkes;Mansel Road, London, , SW19 4AB;
Wimbledon Park Montessori School;;Heythorp Street, London, , SW18;
Young England Kindergarten;Mrs Kay King;St Saviour's Hall, St George's Square, London, SW1V 3QW;020 7834 3171
Zebedee Nursery Schools;Miss Su;Sulivan Hall, Parsons Green, London, SW6 4TN;020 7371 9224
