Id,Forename,Surname,Called name,Forename 2,Year,Class,Ac House,Date of birth,Sex,Nationality,Ethnicity,Religion,Language,Entry Year,Entry Month,Internet Permission,Media Permission,Unique Pupil Number,Email,Address1,Address2,Address3,Address4,Home post code,Home salutation,Postal title,Home phone number,Mobile phone number,Applicant Assessment Date,Applicant Assessment Time,ApplicantSource,PreviousSchool,Dr_Address1,Dr_Address2,Dr_Address3,Dr_Address4,Doctor name,Medical Allergy,Medical Fits Fainting Epilepsy,Medical Asthma,Medical Diet Restriction,Medical Hayfever,Medical Tetanus Innoculation,Special Diet required,Special Diet Details,Allegry notes field
Ful-000660,William,Burdett,William,Arthur,1,Main,,07-06-2006,Male,,,,,2013,,0,0,,,11A Rodrigues Court,350 Victoria Road,Pokfulam,Hong Kong,,Mr and Mrs Burdett,Mr & Mrs J Burdett,85262043881,,,,,,,,,,,0,0,0,0,0,0,,,
Ful-ZURU77,Poppy,Burdett,Poppy,Florence,1,,,30-07-2008,Female,,,,,2013,,0,0,,,11A Rodrigues Court,350 Victoria Road,Pokfulam,Hong Kong,,Mr and Mrs Burdett,Mr & Mrs J Burdett,85262043881,,,,,,,,,,,0,0,0,0,0,0,,,
