Classes,Subject,NoEvents
RFE:RFN:RFS,Form_Comment,23
RFE:RFN:RFS,Games,1
RFE:RFN:RFS,Gym_Athletics,1
RFE:RFN:RFS,Music,1
RFE:RFN:RFS,Art,2
RFE:RFN:RFS,French,1
RFE:RFN:RFS,Ballet,1
RFE:RFN:RFS,ICT,1
RFE:RFN:RFS,Drama,1
1FE:1FN:1FS,Form_Comment,28
1FE:1FN:1FS,Swimming,2
1FE:1FN:1FS,Games,1
1FE:1FN:1FS,Art,2
1FE:1FN:1FS,French,1
1FE:1FN:1FS,Ballet,1
1FE:1FN:1FS,Music,1
1FE:1FN:1FS,Drama,1
1FE:1FN:1FS,Gym_Athletics,1
1FE:1FN:1FS,ICT,1
2FE:2FN:2FS,Form_Comment,27
2FE:2FN:2FS,Games,2
2FE:2FN:2FS,French,1
2FE:2FN:2FS,Ballet,1
2FE:2FN:2FS,Drama,1
2FE:2FN:2FS,Music,1
2FE:2FN:2FS,Gym_Athletics,1
2FE:2FN:2FS,French,1
2FE:2FN:2FS,Art,2
2FE:2FN:2FS,ICT,1
2FE:2FN:2FS,Swimming,2
3FE:3FN:3FS,Form_Comment,1
3FE:3FN:3FS,English,6
3FE:3FN:3FS,Swimming,2
3FE:3FN:3FS,Mathematics,8
3FE:3FN:3FS,Humanities,4
3FE:3FN:3FS,Music,2
3FE:3FN:3FS,French,2
3FE:3FN:3FS,Gym_Athletics,2
Year3.Games.Boys:Year3.Games.Girls,Games,6
3FE:3FN:3FS,Science,4
3FE:3FN:3FS,Art,2
3FE:3FN:3FS,Drama,1
3FE:3FN:3FS,ICT,1
3FE:3FN:3FS,Religious_Education,1
3FE:3FN:3FS,PSCHE,1
4FE:4FN:4FS,Form_Comment,1
Year4.Mathematics.SetA:Year4.Mathematics.SetB:Year4.Mathematics.SetC:Year4.Mathematics.SetD,Mathematics,8
4FE:4FN:4FS,Science,4
4FE:4FN:4FS,Swimming,2
4FE:4FN:4FS,English,6
4FE:4FN:4FS,Music,2
4FE:4FN:4FS,ICT,2
4FE:4FN:4FS,Religious_Education,1
Year4.Games.Boys:Year4.Games.Girls,Games,6
4FE:4FN:4FS,PSCHE,1
4FE:4FN:4FS,Humanities,3
4FE:4FN:4FS,Drama,1
4FE:4FN:4FS,French,2
4FE:4FN:4FS,Art,2
4FE:4FN:4FS,Gym_Athletics,1
5FE:5FN:5FS,Form_Comment,1
Year5.English.SetA:Year5.English.SetB:Year5.English.SetC:Year5.English.SetD,English,8
5FE:5FN:5FS,PSCHE,1
Year5.Mathematics.SetA:Year5.Mathematics.SetB:Year5.Mathematics.SetC:Year5.Mathematics.SetD,Mathematics,7
5FE:5FN:5FS,Science,5
5FE:5FN:5FS,Art,2
Year5.Games.Boys:Year5.Games.Girls,Games,4
5FE:5FN:5FS,Music,2
5FE:5FN:5FS,French,2
5FE:5FN:5FS,Humanities,4
5FE:5FN:5FS,Latin,1
5FE:5FN:5FS,Religious_Education,1
5FE:5FN:5FS,ICT,1
5FE:5FN:5FS,Drama,1
5FE:5FN:5FS,Gym_Athletics,1
6FE:6FN:6FS,Form_Comment,1
Year6.Mathematics.SetA:Year6.Mathematics.SetB:Year6.Mathematics.SetC:Year6.Mathematics.SetD,Mathematics,10
6FE:6FN:6FS,Humanities,3
Year6.English.SetA:Year6.English.SetB:Year6.English.SetC:Year6.English.SetD,English,8
Year6.Games.Boys:Year6.Games.Girls,Games,6
6FE:6FN:6FS,Art,2
6FE:6FN:6FS,Science,6
6FE:6FN:6FS,PSCHE,1
6FE:6FN:6FS,Latin,2
6FE:6FN:6FS,French,1
6FE:6FN:6FS,Religious_Education,1
6FE:6FN:6FS,Gym_Athletics,1
6FE:6FN:6FS,Drama,1
6FE:6FN:6FS,Music,2
6FE:6FN:6FS,ICT,2
