Name,StartTime,Duration,Group
P1,08:50:00,45,LowerSchool
P2,09:40:00,45,LowerSchool
P3,10:55:00,45,LowerSchool
P4,11:45:00,45,LowerSchool
P5,13:50:00,45,LowerSchool
P6,14:40:00,45,LowerSchool
P1,08:50:00,60,MiddleSchool
P2,09:55:00,60,MiddleSchool
P3,11:25:00,35,MiddleSchool
P4,12:05:00,35,MiddleSchool
P5,13:50:00,60,MiddleSchool
P6,14:55:00,60,MiddleSchool
P1,08:50:00,60,UpperSchool
P2,09:55:00,60,UpperSchool
P3,11:25:00,35,UpperSchool
P4,12:05:00,35,UpperSchool
P5,13:50:00,60,UpperSchool
P6,14:55:00,60,UpperSchool
