Id,Forename,Surname,Called name,Forename 2,Year,Class,Ac House,Date of birth,Sex,Nationality,Ethnicity,Religion,Language,Entry Year,Entry Month,Internet Permission,Media Permission,Unique Pupil Number,Email,Address1,Address2,Address3,Address4,Home post code,Home salutation,Postal title,Home phone number,Mobile phone number,Applicant Assessment Date,Applicant Assessment Time,ApplicantSource,Medical Allergy,Medical Fits Fainting Epilepsy,Medical Asthma,Medical Diet Restriction,Medical Hayfever,Medical Tetanus Innoculation,Special Diet required,Special Diet Details,Allegry notes field
Ken-0003,Camilla,Adami,Camilla,,2,2KE,Lawrence,17-08-2003,Female,,,,,,,0,0,G207631708001,,6 Scarsdale Villas,London,,,W8 6PR,Mr and Mrs Adami,Mr & Mrs H Adami,020 7938 1281,,,,,0,0,0,0,0,0,,,
Ken-0004,Allegra,Adami,Allegra,,4,4KN,Lawrence,21-08-2001,Female,,,PROT,ENG,,,1,1,K207631706001,,6 Scarsdale Villas,London,,,W8 6PR,Mr and Mrs Adami,Mr & Mrs H Adami,020 7938 1281,,,,,0,0,0,0,0,0,,,
Ken-0008,Tilly,Amrolia,Tilly,,5,5KS,Lawrence,01-08-2000,Female,British,,OT,ENG,,,1,1,C207631705003,,13 Albert Place,London,,,W8 5PD,Dr and Mrs  Amrolia,Dr & Mrs Z Amrolia,020 7376 9166,07957 206099,,,,0,0,0,0,0,0,,,
Ken-0010,Fergus,Anderson,Fergus,William,6,6KS,Becket,27-07-1999,Male,British,,,ENG,,,0,0,N207631704001,,Holland Gate House,43 Upper Addison Gardens,London,,W14 8AJ,Mr and Mrs Anderson,Mr & Mrs C Anderson,020 7603 8860,07710 380 266,,,,0,0,0,0,0,0,,,
Ken-0013,Elizabeth,Aperghis,Elizabeth,Marie-Claire,2,2KS,Becket,16-11-2002,Female,Dutch,,,ENG,,,0,0,W207631707001,,12A Barkston Gardens,London,,,SW5 0ER,Mr and Mrs Aperghis,Mr & Mrs N Aperghis,020 7341 3848,,,,,0,0,0,0,0,0,,,
Ken-0014,Albert,Aperghis,Albert,,4,4KE,Becket,26-05-2001,Male,Dutch,,ROM,ENG,,,1,1,Z207631706002,,12A Barkston Gardens,London,,,SW5 0ER,Mr and Mrs Aperghis,Mr & Mr N Aperghis,020 7341 3848,07714 235 418,,,,0,0,0,0,0,0,,,
Ken-0015,Lara,Archer,Lara,,3,3KN,Hardy,12-08-2002,Female,British,,,ENG,,,1,1,K207631707002,LArc1@Ken.thomasvle.org,18 Cottesmore Gardens,London,,,W8 5PR,Mr and Mrs Archer,Mr & Mrs K Archer,020 7937 1953,07802 561 562,,,,0,0,0,0,0,0,,,
Ken-0016,Jamie,Arnold,Jamie,,6,6KN,More,11-05-1999,Male,,,,,,,0,0,C207631704002,,1 Penzance Place,London,,,W11 4PE,Mr and Mrs Arnold,Mr & Mrs M Arnold,020 7912 0026,07970 138 994,,,,0,0,0,0,0,0,,,
Ken-0017,Isabel,Arrusi,Isabel,,3,3KE,More,29-08-2002,Female,British,,,ENG,,,1,1,Z207631707003,,62 St Quintin Avenue,London,,,W10 6PA,Mr and Mrs  Arrusi,Mr & Mrs E Arrusi,020 8969 3602,07786 261 716,,,,0,0,0,0,0,0,,,
Ken-0019,Emily,Avis,Millie,,6,6KE,Hardy,09-03-1999,Female,British,,,ENG,,,0,0,R207631704003,,14 Westbourne Park Road,London,,,W2 5PH,Mr and Mrs Avis,Mr & Mrs C Avis,020 7229 0840,07740 585 098,,,,0,0,0,0,0,0,,,
Ken-0020,Zachary,Aynsley,Zachary,,6,6KE,Becket,27-07-1999,Male,British,,,ENG,,,0,0,F207631704004,,31 Phillimore Gardens,London,,,W8 7QG,Mr  Aynsley and Mrs de Botton Aynsley,Mr A Aynsley & Mrs M de Botton Aynsley,020 7368 3930,07796 178 273,,,,0,0,0,0,0,0,,,
Ken-0021,Talia,Aynsley,Talia,Alexandria,2,2KS,Becket,22-08-2003,Female,British,,,ENG,,,0,0,W207631708002,,31 Phillimore Gardens,London,,,W8 7QG,Mr Aynsley and Mrs de Botton Aynsley,Mr A Aynsley & Mrs M de Botton Aynsley,020 7368 3930,07796 178 273,,,,0,0,0,0,0,0,,,
Ken-0024,Amber,Azmoudeh,Amber,,3,3KE,More,04-05-2002,Female,,,ROM,ENG,,,1,1,N207631707004,,8 Wycombe Square,London,,,W8 7JD,Mr and Mrs Azmoudeh,Mr & Mrs M Azmoudeh,020 3220 0185,07713 682 576,,,,0,0,0,0,0,0,,,
Ken-0027,Honor,Bailey,Honor,,6,6KE,Hardy,27-04-1999,Female,British,,,ENG,,,1,1,V207631704005,,4 Irving Road,London,,,W14 0JS,Mr and Mrs Bailey,Mr & Mrs A Bailey,020 7602 3692,07802 435 399,,,,0,0,0,0,0,0,,,
Ken-0028,Livia,Bailey,Livia,,4,4KN,Hardy,10-04-2001,Female,,,,ENG,,,0,0,N207631706003,,4 Irving Road,London,,,W14 0JS,Mr and Mrs Bailey,Mr & Mrs A Bailey,020 7602 3692,07802 435 399,,,,0,0,0,0,0,0,,,
Ken-0031,Darius,Bamberg,Darius,,4,4KE,Lawrence,11-11-2000,Male,British,,CATH,ENG,,,1,1,R207631705004,,14 Hyde Park Gate,London,,,SW7 5DG,Mr and Mrs Bamberg,Mr & Mrs M Bamberg,020 7589 1899,07967 804 632,,,,0,0,0,0,0,0,,,
Ken-0033,Molly,Banes,Molly,,6,6KN,Becket,29-04-1999,Female,American,,,ENG,,,0,0,J207631704006,,28 Porten Road,London,,,W14 0LQ,Mr and Mrs Banes,Mr & Mr J Banes,020 7603 2125,07970 792 304,,,,0,0,0,0,0,0,,,
Ken-0035,Alexander,Barker,Alex,,2,2KN,Becket,07-02-2003,Male,British,,,ENG,,,0,0,K207631708003,,2 Albert Place,London,,,W8 5PD,Mr and Mrs Barker,Mr & Mrs G Barker,020 7937 6006,07973 657 335,,,,0,0,0,0,0,0,,,
Ken-0036,Isabella,Barkett,Isabella,,6,6KN,Lawrence,15-05-1999,Female,,,NO,ENG,,,1,1,Y207631704007,,41 St Mary Abbots Terrace,London,,,W14 8NX,Mr and Mrs Barkett,Mr & Mrs M Barkett,020 7371 6666,07906 981 015,,,,0,0,0,0,0,0,,,
Ken-0037,Paolo,Barkett,Paolo,,4,4KS,Lawrence,03-01-2001,Male,,,NO,ENG,,,1,1,R207631706005,,41 St Mary Abbots Terrace,London,,,W14 8NX,Mr and Mrs Barkett,Mr & Mrs M Barkett,020 7371 6666,07906 981 015,,,,0,0,0,0,0,0,,,
Ken-0038,Emily,Barlow,Emily,,3,3KN,Becket,31-05-2002,Female,British,,,ENG,,,1,1,C207631707005,Ebar1@Ken.thomasvle.org,68 Addison Road,London,,,W14 8JL,Mr and Mrs Barlow,Mr & Mr G Barlow,020 7603 4585,0777 066 0265,,,,0,0,0,0,0,0,,,
Ken-0039,Daniel,Barlow,Daniel,,5,5KN,Becket,16-08-2000,Male,British,,,ENG,,,1,1,F207631705005,,68 Addison Road,London,,,W14 8JL,Mr and Mrs Barlow,Mr & Mrs G Barlow,020 7603 4585,0777 066 0265,,,,0,0,0,0,0,0,,,
Ken-0044,Hermione,Bathurst,Hermione,Mary Callander,6,6KE,Hardy,17-12-1998,Female,British,,,ENG,,,0,0,C207631703001,,42 Stanford Road,London,,,W8 5PZ,Mr and Mrs Bathurst,Mr & Mrs C Bathurst,020 7937 4970,07831 685 471,,,,0,0,0,0,0,0,,,
Ken-0047,Lili,Becker,Lili,,3,3KN,Becket,17-09-2001,Female,German,,LUTH,ENG,,,1,1,F207631706006,LBec1@Ken.thomasvle.org,16 Alexander Street,London,,,W2 5NT,Mr and Mrs Becker,Mr & Mrs D Becker,020 7243 6580,07971 790 444,,,,0,0,0,0,0,0,,,
Ken-0048,Edward,Bedford,Edward,,6,6KS,Lawrence,09-03-1999,Male,British,,,ENG,,,0,0,M207631704008,,18 St Anns Road,London,,,W11 4SR,Mr and Mrs Bedford,Mr & Mrs M Bedford,020 7371 1334,07967 044 315,,,,0,0,0,0,0,0,,,
Ken-0051,Oliver,Bell,Oliver,,4,4KS,Lawrence,05-02-2001,Male,British,,ROM,ENG,,,1,1,V207631706007,,74 Iverna Court ,London,,,W8 6TT,Mr and Mrs Bell,Mr & Mrs N Bell,020 7938 4600,07899 998 241,,,,0,0,0,0,0,0,,,
Ken-0052,Luke,Biamonti,Luke,,3,3KN,Lawrence,10-09-2001,Male,French,,CATH,ENG,,,1,1,J207631706008,LBia1@Ken.thomasvle.org,29 Pembroke Gardens,London,,,W8 6HU,Mr and Mrs Biamonti,Mr & Mrs J Biamonti,020 7371 6075,07980 984 134,,,,0,0,0,0,0,0,,,
Ken-0053,Cayetana,Birch,Cayetana,,2,2KS,Hardy,13-09-2002,Female,British,,,ENG,,,1,1,R207631707006,,16 Abingdon Villas,London,,,W8 6BX,Mr and Mrs Birch,Mr & Mrs J Birch,020 7937 7403,07811 118 625,,,,0,0,0,0,0,0,,,
Ken-0054,Nicolas,Birch,Nicolas,,4,4KN,Hardy,11-02-2001,Male,British,,,ENG,,,1,1,Y207631706009,,16 Abingdon Villas,London,,,W8 6BX,Mr and Mrs Birch,Mr & Mrs J Birch,020 7937 7403,07811 118 625,,,,0,0,0,0,0,0,,,
Ken-0055,Carlotta,Blamey,Carlotta,Ellen Alice,6,6KN,More,15-08-1999,Female,,,,,,,0,0,M207631704010,,Flat 6,197 Queens Gate,London,,SW7 5EU,Mr and Mrs Blamey,Mr & Mrs J Blamey,020 7589 1749,07764 673 680,,,,0,0,0,0,0,0,,,
Ken-0056,Edward,Blamey -Beccaria,Edward,Alberto,2,2KE,More,16-04-2003,Male,,,,,,,0,0,Z207631708004,,Flat 6,197 Queens Gate,London,,SW7 5EU,Mr and Mrs Blamey,Mr & Mrs J Blamey,020 7589 1749,07764 673 680,,,,0,0,0,0,0,0,,,
Ken-0057,Kylie,Blitzer,Kylie,,3,3KS,Lawrence,07-04-2002,Female,American,,,ENG,,,1,1,F207631707007,,5 Carlyle Square,London,,,SW3 6EX,Mr and Mrs Blitzer,Mr & Mrs D Blitzer,020 7352 1117,07966 333 166,,,,0,0,0,0,0,0,,,
Ken-0058,Arabella,Bloom,Arabella,,5,5KN,More,23-09-1999,Female,British,,,ENG,,,1,1,B207631704011,,25 Norland Square,London,,,W11 4PU,Mr & Mrs Bloom,Mr & Mrs P Bloom,020 7221 8186,07887 650980,,,,0,0,0,0,0,0,,,
Ken-0060,Cecilia,Blotto,Cecilia,,4,4KE,Becket,20-08-2001,Female,Italian,,CATH,ENG,,,1,1,J207631706010,,19 Bedford Gardens,London,,,W8 7EF,Mr Blotto and Mrs Masoero-Blotto,Mr S Blotto & Mrs A Masoero-Blotto,020 7727 7004,07900 226 856,,,,0,0,0,0,0,0,,,
Ken-0061,Angelica,Blotto,Angelica,,2,2KN,Becket,02-06-2003,Female,Italian,,CATH,ENG,,,1,1,N207631708005,,19 Bedford Gardens,London,,,W8 7EF,Mr Blotto and Mrs MASOERO-BLOTTO,Mr S Blotto & Mrs A MASOERO-BLOTTO,020 7727 7004,07900 226 856,,,,0,0,0,0,0,0,,,
Ken-0062,Reef,Boericke,Reef,,5,5KS,Becket,28-02-2000,Male,American,,NO,ENG,,,1,1,V207631705006,,99 Blythe Road,London,,,W14 0HP,Mr and Mrs Boericke,Mr & Mrs B Boericke,020 7371 6137,07793 917070,,,,0,0,0,0,0,0,,,
Ken-0063,Audrey,Bond,Audrey,Elizabeth,2,2KS,More,06-07-2003,Female,,,,,2007,,0,0,C207631708006,,"Flat 4, 3 Kensington Square",London,,,W8 5EP,Mr and Mrs Bond,Mr & Mrs H Bond,020 7376 1272,07785 307 864,,,,0,0,0,0,0,0,,,
Ken-0064,Athena,Bonnefoy,Athena,,2,2KN,More,21-02-2003,Female,,,,ENG,2007,,0,0,R207631708007,,28 Pembroke Gardens,London,,,W8 6HU,Mr and Mrs Bonnefoy,Mr & Mrs P Bonnefoy,020 7348 0205,07771 925 963,,,,0,0,0,0,0,0,,,
Ken-0072,Ellie,Brooks Wadham,Ellie,Jane,3,3KN,Hardy,02-05-2002,Female,British,,ROM,ENG,,,1,1,V207631707008,EBro1@Ken.thomasvle.org,22 Onslow Gardens,London,,,SW7 3AL,Mr and Mrs Brooks Wadham,Mr & Mrs M Brooks Wadham,020 7581 4966,07967 166 055,,,,0,0,0,0,0,0,,,
Ken-0073,Clara,Buckens,Clara,,6,6KN,Lawrence,27-05-1999,Female,,,,,,,0,0,Q207631704012,,38 Porchester Terrace,London,,,W2 3TP,Mr and Mrs Buckens,Mr & Mrs J Buckens,020 7262 0441,07714 285 545,,,,0,0,0,0,0,0,,,
Ken-0075,Edie,Burgess,Edie,Rose,3,3KE,Lawrence,29-05-2002,Female,British,,,ENG,,,1,1,J207631707009,,10 Kensington Court Place,London,,,W8 5BJ,Miss Burgess,Mr & Mrs M Burgess,020 7368 0057,07767 778 086,,,,0,0,0,0,0,0,,,
Ken-0076,Ruby,Burgess,Ruby,,5,5KS,Lawrence,25-11-1999,Female,British,,,ENG,,,1,1,E207631704013,,10 Kensington Court Place,London,,,W8 5BJ,Mr and Mrs Burgess,Mr & Mrs M Burgess,020 7368 0057,07767 778 086,,,,0,0,0,0,0,0,,,
Ken-0077,Freya,Buxton,Freya,,4,4KN,Becket,12-12-2000,Female,British,,,ENG,,,1,1,Y207631705008,,70 Palace Gardens Terrace,London,,,W8 4RR,Mr and Mrs Buxton,Mr & Mrs E Buxton,020 7792 1760,07702 603 489,,,,0,0,0,0,0,0,,,
Ken-0078,Celine,Caraffa,Celine,,4,4KS,More,26-04-2001,Female,,,NO,ENG,,,0,0,Y207631706011,,13 Norland Square,London,,,W11 4PX,Mr and Mrs Caraffa,Mr & Mrs L Caraffa,020 7221 9330,07786 878590,,,,0,0,0,0,0,0,,,
Ken-0079,Finn,Carney,Finn,,6,6KE,Becket,13-05-1999,Male,American,,,,,,0,0,U207631704014,,15 Brunswick Gardens,London,,,W8 4AS,Mr and Mrs Carney,Mr & Mrs M Carney,020 7727 8576,07770 222 007,,,,0,0,0,0,0,0,,,
Ken-0080,Margherita,Carrara de Sambuy,Margherita,,2,2KE,More,14-02-2003,Female,,,,,2007,,0,0,F207631708008,,Flat 1 ,10 Bolton Gardens,London,,SW5 0AW,Mr Carrara de Sambuy and Mrs Bossi,Mr A Carrara de Sambuy & Mrs S Bossi,020 7823 8671,07951 157 581,,,,0,0,0,0,0,0,,,
Ken-0082,Tilly,Chandley,Tilly,,6,6KN,Becket,29-07-1999,Female,,,,,,,0,0,H207631704015,,81a Elsham Road,London,,,W14 8HH,Mr Chandley and Ms Morley,Mr D Chandley & Ms L Morley,020 7603 6988,07780 602 698,,,,0,0,0,0,0,0,,,
Ken-0084,Sofia,Charles,Sofia,,6,6KS,Hardy,12-02-1999,Female,,,,,,,0,0,X207631704016,,26 Bedford Gardens,London,,,W8 7EH,Mr and Mrs Charles,Mr & Mrs E Charles,020 7243 0522,07968 729 274,,,,0,0,0,0,0,0,,,
Ken-0086,May,Chenevix-Trench,May,,2,2KE,Hardy,07-02-2003,Female,,,,,2007,,0,0,V207631708009,,4 Albert Place,London,,,W8 5PD,Mr and Mrs Chenevix-Trench,Mr & Mrs J Chenevix-Trench,020 7376 1193,07768 893 479,,,,0,0,0,0,0,0,,,
Ken-0088,Edoardo,Colao,Edoardo,,5,5KS,More,31-08-2000,Male,Italian,,CATH,ENG,2007,,0,0,M207631705009,,22 Bramham Gardens,London,,,SW5 0JE,Mr Colao and Mrs Cassinis,Mr V Colao & Mrs S Cassinis,020 7244 1095,07788 554 400,,,,0,0,0,0,0,0,,,
Ken-0090,Coco,Cottam,Coco,Sevena,2,2KN,Lawrence,16-08-2003,Female,British,,,ENG,2007,,0,0,F207631708010,,5 Cambridge Place,London,,,W8 5PB,Mr and Mrs Cottam,Mr & Mrs C Cottam,020 7937 6549,07703 218 959,,,,0,0,0,0,0,0,,,
Ken-0091,Audrey,Craighead,Audrey,,3,3KS,Lawrence,07-12-2001,Female,American,,PROT,ENG,,,1,1,M207631706012,,28 Pembroke Square,London,,,W8 6PB,Mr and Mrs Craighead,Mr & Mrs B Craighead,020 7376 0207,07931 356 741,,,,0,0,0,0,0,0,,,
Ken-0092,Cecily,Craighead,Cecily,,6,6KS,Lawrence,15-07-1999,Female,American,,PROT,ENG,,,1,1,L207631704017,,28 Pembroke Square,London,,,W8 6PB,Mr and Mrs Craighead,Mr & Mrs B Craighead,020 7376 0207,07931 356 741,,,,0,0,0,0,0,0,,,
Ken-0095,Donall,Cunningham,Donall,Philippe,3,3KE,Becket,12-05-2002,Male,British,,CATH,ENG,,,1,1,V207631707010,,109 Ladbroke Road,London,,,W11 3PR,Mr and Mrs Cunningham,Mr & Mrs M Cunningham,020 7792 1176,07939 595 748,,,SI,0,0,0,0,0,0,,,
Ken-0098,Alexander,Cussons,Alexander,,4,4KE,Becket,06-07-2001,Male,British,,,ENG,,,1,1,B207631706013,,6 Lexham Gardens Mews,London,,,W8 5JQ,Mr and Mrs Cussons,Mr & Mrs B Cussons,020 7944 4476,07971 224 724,,,,0,0,0,0,0,0,,,
Ken-0099,Dana,Jabre,Dana,,5,5KN,More,29-12-1999,Female,Lebanese,,,ENG,,,1,1,A207631704018,,"Flat 6, 29 Palace Gate",London,,,W8 5LY,Mr and Mrs Jabre,Mr & Mrs K Jabre,020 7589 7782,07747 021457,,,,0,0,0,0,0,0,,,
Ken-0100,Yasmin,Dawson,Yasmin,,2,2KN,Hardy,06-01-2003,Female,,,,ENG,2007,,0,0,V207631708011,,15 Montpellier Place ,London,,,SW7 1HJ,Mr Dawson and Mrs Kawazu Dawson,Mr J Dawson & Mrs T Kawazu Dawson,020 7581 0566,07901 675 111,,,,0,0,0,0,0,0,,,
Ken-0101,Ludovico,De Giorgi,Ludovico,,2,2KS,Lawrence,25-04-2003,Male,,,,,2007,,0,0,J207631708012,,14 Eldon Road,London,,,W8 5PU,Mr and Mrs De Giorgi,Mr & Mrs D De Giorgi,020 7937 5027,,,,,0,0,0,0,0,0,,,
Ken-0102,Alexander,De Kare-Silver,Alexander,,4,4KE,Hardy,15-01-2001,Male,British,,CATH,ENG,,,1,1,Q207631706014,,14 Wilton Street,London,,,SW1X 7AF,Mr and Mrs De Kare-Silver,Mr & Mrs M De Kare-Silver,020 7235 9762,07787 514 177,,,,0,0,0,0,0,0,,,
Ken-0106,Astree-Gabrielle,De Laperouse,Astree-Gabrielle,De Laperouse,4,4KS,Lawrence,14-01-2001,Female,French,,CATH,ENG,,,1,1,E207631706015,,15 Launceston Place,London,,,W8 5RL,Mr and Mrs de Laperouse,Mr & Mrs D de Laperouse,020 7937 0421,07785 717 575,,,,0,0,0,0,0,0,,,
Ken-0109,Jemma,Donovan,Jemma,,5,5KN,Lawrence,28-03-2000,Female,,,,ENG,,,1,1,M207631705011,Jdon1@Ken.thomasvle.org,3 Chepstow Villas,London,,,W11 3EE,Mr and Mrs Donovan,Mr & Mrs J Donovan,020 7221 4627,07717 448352,,,,0,0,0,0,0,0,,,
Ken-0110,Zac,Donovan,Zac,,4,4KN,Lawrence,22-03-2001,Male,,,NO,ENG,,,1,1,U207631706016,,3 Chepstow Villas,London,,,W11 3EE,Mr and Mrs Donovan,Mr & Mrs J Donovan,020 7221 4627,07717 448 352,,,,0,0,0,0,0,0,,,
Ken-0115,Kareen,Fares,Kareen,,6,6KN,More,09-04-1999,Female,Lebanese,,Greek,ENG,,,1,1,P207631704019,,4 Redcliffe Square,London,,,SW10 9JZ,Mr and Mrs Fares,Mr & Mrs M Fares,020 7373 4934,07768 774 646,,,,0,0,0,0,0,0,,,
Ken-0116,Henry,Farquhar,Henry,,2,2KE,Becket,31-03-2003,Male,,,,ENG,2007,,0,0,Y207631708013,,25 Ladbroke Grove,London,,,W11 3AY,Mr and Mrs Farquhar,Mr & Mrs E Farquhar,020 7221 2486,07850 824 271,,,,0,0,0,0,0,0,,,
Ken-0117,Andrew,Farry,Andrew,,6,6KS,More,16-04-1999,Male,,,,ENG,2007,,0,0,A207631704020,,61 Woodfords Square,London,,,W14 8DS,Mr Farry and Ms Masters,Mr J Farry & Ms B Masters,020 7603 7269,,,,,0,0,0,0,0,0,,,
Ken-0118,Eleanor,Farry,Eleanor,,3,3KS,More,05-06-2002,Female,,,,ENG,2007,,0,0,Y207631707012,,61 Woodfords Square,London,,,W14 8DS,Mr Farry & Ms Masters,Mr J Farry & Ms B Masters,020 7603 7269,,,,,0,0,0,0,0,0,,,
Ken-0121,Oliver,Ferrand,Oliver,,3,3KS,Lawrence,09-11-2001,Male,American,,CATH,ENG,,,1,1,H207631706017,,81 Princes House,50 Kensington Park Road,London,,W11 3BW,Mr and Mrs Ferrand,Mr & Mrs H Ferrand,020 7792 4676,07722 611 329,,,,0,0,0,0,0,0,,,
Ken-0125,Jessica,Flood,Jessica,,2,2KS,Lawrence,26-11-2002,Female,,,,,2007,,0,0,M207631707013,,91 Kensington Court,London,,,W8 5DU,Mr and Mrs Flood,Mr & Mrs T Flood,020 7795 6465,07768 862 270,,,,0,0,0,0,0,0,,,
Ken-0126,Trinity,Florence,Trinity,,4,4KN,Becket,20-08-2001,Female,,,,ENG,,,0,0,L207631706019,,17 Wycombe Square,London,,,W8 7JD,Mr and Mrs Florence,Mr & Mrs W Florence,020 7243 4343,07798 852 772,,,,0,0,0,0,0,0,,,
Ken-0131,Lucas,Fraser-Taliente,Lucas,,3,3KE,Lawrence,25-04-2002,Male,British,,ROM,ENG,,,1,1,Z207631709115,,4 Alexander Street,London,,,W2 5NT,Mr Taliente and Ms Fraser,Mr D Taliente & Ms P Fraser,020 7727 6889,07748 654 767,,,,0,0,0,0,0,0,,,
Ken-0132,Kit,Fraser-Taliente,Kit,,6,6KS,Lawrence,08-06-1999,Male,British,,ROM,ENG,,,1,1,N207631709116,,4 Alexander Street,London,,,W2 5NT,Mr Taliente and Ms Fraser,Mr D Taliente & Ms P Fraser,020 7727 6889,07748 654 767,,,,0,0,0,0,0,0,,,
Ken-0133,Ludo,Fraser-Taliente,Ludo,,6,6KS,Lawrence,08-06-1999,Male,British,,ROM,ENG,,,1,1,C207631709117,,4 Alexander Street,London,,,W2 5NT,Mr Taliente and Ms Fraser,Mr D Taliente & Ms P Fraser,020 7727 6889,07748 654 767,,,,0,0,0,0,0,0,,,
Ken-0135,Mackenzie,Fuller,Mackenzie,,4,4KS,Becket,27-03-2001,Male,British,,,ENG,,,1,1,X207631706020,,39 Saint Maur Road,London,,,SW6 4DR,Mr and Mrs Fuller,Mr & Mrs S Fuller,020 7736 1302,07966 014 232,,,,0,0,0,0,0,0,,,
Ken-0136,Luca,Fuller,Luca,,2,2KE,Becket,03-05-2003,Female,British,,,ENG,2007,,1,1,M207631708014,,39 Saint Maur Road,London,,,SW6 4DR,Mr and Mrs Fuller,Mr & Mrs S Fuller,020 7736 1302,07966 014 232,,,,0,0,0,0,0,0,,,
Ken-0137,Leonidas,Gallagher,Leonidas,,4,4KS,Lawrence,18-05-2001,Male,,,CATH,ENG,,,1,1,L207631706021,,30 Bina Gardens,Flat 4,London,,SW5 0LA,Mr and Mrs Gallagher,Mr & Mrs W Gallagher,020 7373 3710,07887 628 222,,,,0,0,0,0,0,0,,,
Ken-0138,William,Gallagher,William,,6,6KN,Lawrence,29-05-1999,Male,,,CATH,ENG,,,1,1,D207631704022,,30 Bina Gardens,Flat 4,London,,SW5 0LA,Mr and Mrs Gallagher,Mr & Mrs W Gallagher,020 7373 3710,07887 628 222,,,,0,0,0,0,0,0,,,
Ken-0139,Honor,Gell,Honor,,6,6KN,Lawrence,29-10-1998,Female,,,,,,,0,0,R207631703002,,56a Brunswick Gardens,London,,,W8 4AN,Mr and Mrs Gell,Mr & Mrs A Gell,020 7243 1490,07831 134 130,,,,0,0,0,0,0,0,,,
Ken-0140,Sara,Getter,Sara,Nicole,2,2KE,Lawrence,07-05-2003,Female,,,,,2007,,0,0,B207631708015,,23 St Georges Court,Gloucester Road,London,,SW7 4QZ,Mr and Mrs Getter,Mr & Mrs D Getter,020 7584 3907,07738 171 973,,,,0,0,0,0,0,0,,,
Ken-0142,Grace,Goodhart,Grace,,5,5KS,Lawrence,23-11-1999,Female,British,,,ENG,,,1,1,T207631704023,,Basement Flat,3 Vicarage Gate,London,,W8 4HH,Mr and Mrs Goodhart,Mr & Mrs A Goodhard,020 7937 6987,07766 878395,,,,0,0,0,0,0,0,,,
Ken-0144,Charles,Gordon,Charles,Stewart,3,3KN,More,18-04-2002,Male,,,,ENG,,,1,1,B207631707014,CGor1@Ken.thomasvle.org,50 Victoria Road,London,,,W8 5RJ,Mr and Mrs Gordon,Mr & Mrs L Gordon,020 7937 8033,07876 686 468,,,,0,0,0,0,0,0,,,
Ken-0145,Ramsey,Gordon,Ramsey,Lloyd Grant,3,3KE,More,18-04-2002,Male,,,,ENG,,,1,1,Q207631707015,,50 Victoria Road,London,,,W8 5RJ,Mr and Mrs Gordon,Mr & Mrs L Gordon,020 7937 8033,07876 686 468,,,,0,0,0,0,0,0,,,
Ken-0147,Aleco,Goulandris,Aleco,David,2,2KS,More,12-02-2003,Male,,,Greek,ENG,2007,,1,1,Q207631708016,,18 Chester Square,London,,,SW1W 9HS,Mr and Mrs Goulandris,Mr & Mrs B Goulandris,020 7730 8788,07973 893 276,,,,0,0,0,0,0,0,,,
Ken-0148,Constantine,Goulandris,Constantine,,4,4KE,More,30-04-2001,Male,,,Greek,ENG,,,1,1,A207631706022,,18 Chester Square,London,,,SW1W 9HS,Mr and Mrs Goulandris,Mr & Mrs B Goulandris,020 7730 8788,07973 893 276,,,,0,0,0,0,0,0,,,
Ken-0151,Jack,Greengross,Jack,Pardy,2,2KN,More,05-12-2002,Male,British,,NO,ENG,2007,,0,0,E207631707016,,4 Adie Road,London,,,W6 0PW,Mr and Mrs Greengross,Mr & Mrs M Greengross,020 7371 6059,07779 020 273,,,,0,0,0,0,0,0,,,
Ken-0152,Camilla,Groeller,Camilla,Maria,3,3KN,Becket,23-12-2001,Female,,,ROM,ENG,,,1,1,D207631706024,CGro1@Ken.thomasvle.org,58 Scarsdale Villas,London,,,W8 6PP,Mr and Mrs Groeller,Mr & Mrs J Groeller,020 7937 1669,07713 621 723,,,,0,0,0,0,0,0,,,
Ken-0154,Camilla,Gronskag,Camilla,Odfjell,3,3KS,Hardy,29-11-2001,Female,Norwegian,,,ENG,,,1,1,T207631706025,,22 Victoria Road,London,,,W8 5RG,Mr and Mrs Gronskag,Mr & Mrs K Gronskag,020 7937 0703,07979 245 862,,,,0,0,0,0,0,0,,,
Ken-0155,Thomas,Gronskag,Thomas,,3,3KN,Hardy,29-11-2001,Male,Norwegian,,,ENG,,,1,1,G207631706026,TGro1@Ken.thomasvle.org,22 Victoria Road,London,,,W8 5RG,Mr and Mrs Gronskag,Mr & Mrs K Gronskag,020 7937 0703,07979 245 862,,,,0,0,0,0,0,0,,,
Ken-0158,Joseph,Hampel,Joseph,,5,5KS,More,03-04-2000,Male,British,,,ENG,,,1,1,Q207631705013,,17 Kildare Gardens,London,,,W2 5JS,Mr and Mrs Hampel,Mr & Mrs A Hampel,020 7229 1021,07768 511047,,,,0,0,0,0,0,0,,,
Ken-0159,Benjamin,Hampel,Benjamin,,4,4KN,More,27-08-2001,Male,British,,,ENG,,,0,1,W207631706027,,17 Kildare Gardens,London,,,W2 5JS,Mr and Mrs Hampel,Mr & Mrs A Hampel,020 7229 1021,07768 511 047,,,,0,0,0,0,0,0,,,
Ken-0161,Charlotte,Hart,Charlotte,,6,6KE,More,29-09-1998,Female,British,,CATH,ENG,,,1,1,F207631703003,,3 Tedworth Square,London,,,SW3 4DU,Mr and Mrs Hart,Mr & Mrs M Hart,020 7351 5027,07790 017 235,,,,0,0,0,0,0,0,,,
Ken-0162,Georgia,Hart,Georgia,,4,4KS,More,27-12-2000,Female,British,,CATH,ENG,,,1,1,E207631705014,,3 Tedworth Square,London,,,SW3 4DU,Mr and Mrs Hart,Mr & Mrs M Hart,020 7351 5027,07790 017 235,,,,0,0,0,0,0,0,,,
Ken-0163,Max,Heitmann,Max,,5,5KN,Lawrence,26-11-1999,Male,German,,LUTH,ENG,,,1,1,G207631704024,,8 Aynhoe Road,London,,,W14 0QD,Mr and Mrs Heitmann,Mr & Mrs F Heitmann,020 7603 0877,07990 534604,,,,0,0,0,0,0,0,,,
Ken-0165,Andre,Hirschler,Andre,,6,6KE,Lawrence,08-11-1998,Male,,,CATH,ENG,,,0,0,V207631703004,,111 Oakwood Court,London,,,W14 8JZ,Mr Hirschler and Mrs Albertide de Hirschler,Mr P Hirschler & Mrs C Albertide de Hirschler,020 7610 4894,07867 796 793,,,,0,0,0,0,0,0,,,
Ken-0166,Jade,Hoberman,Jade,Emily,2,2KS,More,26-02-2003,Female,Portugese,,CATH,ENG,2007,,0,0,E207631708017,,2 Douro Place,London,,,W8 5PH,Mr and Mrs Hoberman,Mr & Mrs B Hoberman,07711 710 250,07973 331 248,,,,0,0,0,0,0,0,,,
Ken-0168,Darcy,Hood,Darcy,Ellen Fynvola,3,3KS,Hardy,08-07-2002,Female,British,,,ENG,,,1,1,X207631707019,,29 Lansdowne Road,London,,,W11 2LQ,Viscount and Viscountess Hood,Viscount & Viscountess Hood,020 7727 6708,07775 651 958,,,,0,0,0,0,0,0,,,
Ken-0170,Willoughby,Hood,Willoughby,Henry Caspar,6,6KN,Hardy,11-11-1998,Male,British,,,ENG,,,1,1,J207631703005,,29 Lansdowne Road,London,,,W11 2LQ,Viscount and Viscountess Hood,Viscount & Viscountess Hood,020 7727 6708,07775 651 958,,,,0,0,0,0,0,0,,,
Ken-0171,Imran,Hoosenally,Imran,Alexander,2,2KS,Hardy,06-04-2003,Male,,,,,,,0,0,U207631708018,IHoo1@Ken.thomasvle.org,22 Lansdowne Road,London,,,W11 3LL,Mr and Mrs Hoosenally,Mr & Mrs R Hoosenally,07766 514 970,07766 514 970,,,,0,0,0,0,0,0,,,
Ken-0174,John,Hunt,Jack,,3,3KN,Lawrence,27-06-2002,Male,American,,CATH,ENG,,,1,1,H207631707020,JHun1@Ken.thomasvle.org,Flat 1,27 Kensington Court,London,,W8 5DH,Mr and Mrs Hunt,Mr & Mrs K Hunt,020 7938 2232,07968 800 078,,,,0,0,0,0,0,0,,,
Ken-0175,Serge,Isman,Serge,,3,3KN,Hardy,14-04-2002,Male,French,,ROM,ENG,2008,,1,1,X207631707021,SIsm1@Ken.thomasvle.org,Flat 3,22 Cottesmore Gardens,London,,W8 5PR,Mr and Mrs Isman,Mr & Mrs B Isman,020 7368 6427,07904 067 180,,,,0,0,0,0,0,0,,,
Ken-0176,Isabella,Iversen,Isabella,,4,4KS,Becket,08-04-2001,Female,,,,ENG,,,1,1,K207631706028,,12 Gloucester Walk,London,,,W8 4HZ,Mr and Mrs Iversen,Mr & Mrs B Iversen,020 7937 1406,07876 494 118,,,,0,0,0,0,0,0,,,
Ken-0177,Pia,Iversen,Pia,,2,2KN,Becket,30-01-2003,Female,,,,ENG,,,1,1,H207631708019,,12 Gloucester Walk,London,,,W8 4HZ,Mr and Mrs Iversen,Mr & Mrs B Iversen,020 7937 1406,07876 494 118,,,,0,0,0,0,0,0,,,
Ken-0179,Liam,Jackson,Liam,Thomas Cabot,3,3KN,More,27-05-2002,Male,American,,,ENG,,,0,0,L207631707022,LJac1@Ken.thomasvle.org,11 Chelsea Square,London,,,SW3 6LF,Mr and Mrs Jackson,Mr & Mrs H Jackson,020 7352 5252,07738 981 816,,,,0,0,0,0,0,0,,,
Ken-0180,Rory,Jack,Rory,,6,6KS,More,01-03-1999,Male,British,,,ENG,,,0,0,W207631704025,RJac1@Ken.thomasvle.org,24 Dawson Place,London,,,W2 4TJ,Mr & Mrs Jack,Mr & Mrs R Jack,020 7221 4542,07879 401 658,,,,0,0,0,0,0,0,,,
Ken-0182,David,Jay,David,,4,4KE,Hardy,24-03-2001,Male,British,,NO,ENG,,,1,1,Z207631706029,DJay1@Ken.thomasvle.org,6 Queen's Elm Square,London,,,SW3 6ED,Mr and Mrs Jay,Mr & Mrs A Jay,020 7351 5219,07855 747 554,,,,0,0,0,0,0,0,,,
Ken-0183,Amy,Jealous,Amy,Saffron,2,2KE,Hardy,09-01-2003,Female,,,,,,,0,0,U207631708020,,62 Rowan Lodge,Chantry Square,London,,W8 5UJ,Mr and Mrs Jealous,Mr & Mrs M Jealous,020 7376 0182,07776 292 781,,,,0,0,0,0,0,0,,,
Ken-0184,Alexandre-Ralph,Jennison,Alexandre,Pierre,2,2KN,Hardy,09-06-2003,Male,,,,,,,0,0,H207631708021,,26 Kelso Place,London,,,W8 5QE,Mr and Mrs Jennison,Mr & Mrs D Jennison,020 7937 9658,07771 983 339,,,,0,0,0,0,0,0,,,
Ken-0185,Harper-Claire,Jones,Harper,,2,2KE,More,01-09-2002,Female,,,,,,,0,0,A207631707023,,4 Vicarage Gardens,,,,W8 4AH,Mr Harper and Mrs Corroon-Jones,Mr M Harper & Mrs K Corroon-Jones,020 7221 7102,07913 408 522,,,,0,0,0,0,0,0,,,
Ken-0186,James,Jones,James,,6,6KN,More,27-10-1998,Male,American,,ROM,ENG,,,0,0,Y207631703006,,49 Scarsdale Villas,London,,,W8 6PU,Mr and Mrs Jones,Mr & Mrs J Jones,020 7937 4075,0794 267 0165,,,,0,0,0,0,0,0,,,
Ken-0191,Kian,Kamshad,Kian,,2,2KE,Lawrence,17-07-2003,Male,,,,ENG,,,0,0,X207631708022,,27 Addison Avenue,London,,,W11 4QS,Mr and Mrs Kamshad,Mr & Mrs O Kamshad,020 7751 1230,07940 330 324,,,,0,0,0,0,0,0,,,
Ken-0197,Alexander,Kelisky,Alex k,Kelisky,2,2KS,Becket,19-08-2003,Male,British,,,,,,0,0,L207631708023,,Flat D,18 Queens Gate Gardens,London,,SW7 5LY,Mr and Mrs Kelisky,Mr & Mrs J Kelisky,020 7589 7287,,,,,0,0,0,0,0,0,,,
Ken-0201,Natasha,Kerr-Dineen,Natasha,,4,4KE,Hardy,18-10-2000,Female,British,,,ENG,,,1,1,U207631705015,,21 Onslow Gardens,Flat 2,London,,SW7 3AL,Mr & Mrs Kerr-Dineen,Mr & Mrs M Kerr-Dineen,020 7581 5052,07795 101 006,,,,0,0,0,0,0,0,,,
Ken-0202,Alanna,King,Alanna,,4,4KE,Lawrence,11-01-2001,Female,,,,ENG,,,0,0,K207631706030,,37 Gloucester Walk,London,,,W8 4HY,Mr and Mrs King,Mr & Mrs J King,020 7937 0639,,,,,0,0,0,0,0,0,,,
Ken-0203,Cecily,King,Cecily,,6,6KE,Lawrence,16-03-1999,Female,,,,ENG,,,0,0,K207631704026,,37 Gloucester Walk,London,,,W8 4HY,Mr and Mrs King,Mr & Mrs J King,020 7937 0639,07792575184,,,,0,0,0,0,0,0,,,
Ken-0204,Lauren,King,Lauren,,3,3KE,Lawrence,25-06-2002,Female,,,,ENG,,,0,0,P207631707024,,37 Gloucester Walk,London,,,W8 4HY,Mr and Mrs King,Mr & Mrs J King,020 7937 0639,,,,,0,0,0,0,0,0,,,
Ken-0205,Tess,Kirley,Tess,,5,5KS,More,15-07-2000,Female,American,,,ENG,,,1,1,H207631705016,,16 Scarsdale Villas,London,,,W8 6PR,Mr and Mrs Kirley,Mr & Mrs T Kirley,020 7368 6607,07957 302965,,,,0,0,0,0,0,0,,,
Ken-0208,Ariel,Knaster,Ariel,,2,2KE,Becket,02-07-2003,Female,,,,ENG,,,0,0,A207631708024,,6 Phillimore Place,London,,,W8 7BU,Mr and Mrs Knaster,Mr & Mrs A Knaster,020 7937 2756,07776 300 417,,,,0,0,0,0,0,0,,,
Ken-0209,Jakob,Ko,Jakob,Cheung,6,6KS,Becket,14-04-1999,Male,,,CATH,ENG,,,1,1,Z207631704027,,42 De Vere Gardens,London,,,W8 5AH,Mr and Mrs Ko,Mr & Mrs D Ko,020 7397 1495,07976 656 315,,,,0,0,0,0,0,0,,,
Ken-0211,Jan-Luca,Ko,Jan-luca,,4,4KN,Becket,27-08-2001,Male,,,CATH,ENG,,,1,1,Z207631706031,,42 De Vere Gardens,London,,,W8 5AH,Mr and Mrs Ko,Mr & Mrs D Ko,020 7397 1495,07976 656 315,,,,0,0,0,0,0,0,,,
Ken-0212,Frederik,Kroll,Frederik,Julius,2,2KE,Lawrence,16-12-2002,Male,,,PROT,ENG,,,1,1,D207631707025,,11 Ilchester Place,London,,,W14 8AA,Mr and Mrs Kroll,Mr & Mrs B Kroll,020 7371 2534,,,,,0,0,0,0,0,0,,,
Ken-0213,David,Kroll,David,,4,4KS,Lawrence,24-11-2000,Male,,,PROT,ENG,,,1,1,X207631705017,,11 Ilchester Place,London,,,W14 8AA,Mr and Mrs Kroll,Mr & Mrs B Kroll,020 7371 2534,07808 063 843,,,,0,0,0,0,0,0,,,
Ken-0214,Kalina,Laier,Kalina,,2,2KE,Hardy,06-02-2003,Female,,,,,,,0,0,P207631708025,,6 Holland Villas Road,London,,,W14 8BP,Mr Laier and Mrs von Schenk,Mr R Laier & Mrs T von Schenk,020 7938 3352,07887 643 788,,,,0,0,0,0,0,0,,,
Ken-0215,Cressida,Lamming,Cressida,,5,5KS,Hardy,24-02-2000,Female,British,,ROM,ENG,,,1,1,L207631705018,,2 Holland Park Road,London,,,W14 8LZ,Mr and Mrs Lamming,Mr & Mrs G Lamming,020 7603 6959,07710 074 064,,,,0,0,0,0,0,0,,,
Ken-0216,Adam,Laubi,Adam,Richard,2,2KN,Lawrence,07-10-2002,Male,,,,,,,0,0,T207631707026,,Flat 4,52 Onslow Gardens,London,,SW7 3QA,Mr and Mrs Laubi,Mr & Mrs A Laubi,020 7373 0533,07798 501 973,,,,0,0,0,0,0,0,,,
Ken-0217,Jack,Learner,Jack,,5,5KS,Lawrence,14-09-1999,Male,American,,,ENG,,,1,1,N207631704028,,113 Cadogan Gardens,London,,,SW3 2RH,Mr and Mrs Learner,Mr & Mrs J Learner,020 7730 7127,07730 922 377,,,,0,0,0,0,0,0,,,
Ken-0219,Amelia,Learner,Amelia,,2,2KS,Lawrence,04-04-2003,Female,American,,,ENG,2007,,1,1,D207631708026,,113 Cadogan Gardens,London,,,SW3 2RH,Mr and Mrs Learner,Mr & Mrs J Learner,020 7730 7127,,,,,0,0,0,0,0,0,,,
Ken-0222,Annabel,Little,Annabel,Sophie,3,3KS,More,05-06-2002,Female,British,,,ENG,,,1,1,G207631707027,,28 Edwardes Square,London,,,W8 6HH,Mr and Mrs Little,Mr & Mrs C Little,020 7603 6303,07798 604 040,,,,0,0,0,0,0,0,,,
Ken-0223,Lucy,Little,Lucy,,5,5KN,More,06-10-1999,Female,British,,,ENG,,,1,1,C207631704029,,28 Edwardes Square,London,,,W8 6HH,Mr & Mrs Little,Mr & Mrs C Little,020 7603 6303,07798 604040,,,,0,0,0,0,0,0,,,
Ken-0225,Catie,Littell,Catie,,4,4KS,Lawrence,16-03-2001,Female,American,,,ENG,,,1,1,N207631706032,,Flat 3 Abbotsbury House,139 Abbotsbury Road,London,,W14 8EN,Mr and Mrs Littell,Mr & Mrs A Littell,020 7603 5918,07985 946 564,,,,0,0,0,0,0,0,,,
Ken-0227,James,Lord,James,Edward Michael,2,2KE,Hardy,23-11-2002,Male,,,,,2007,,0,0,W207631707028,,29 Hereford Square,London,,,W7 4NB,Mr and Mrs Lord,Mr & Mrs T Lord,020 7244 0262,07747 608 318,,,,0,0,0,0,0,0,,,
Ken-0229,Marina,Lykiardopulo,Marina,,6,6KE,Becket,23-04-1999,Female,,,,,,,0,0,N207631704030,,8 Tregunter Road,London,,,SW10 9LR,Mr and Mrs Lykiardopulo,Mr & Mrs M Lykiardopulo,020 7373 3969,07770 753 344,,,,0,0,0,0,0,0,,,
Ken-0231,Livia,Magyar,Livia,Rose,3,3KE,Becket,01-06-2002,Female,British,,,ENG,,,1,1,K207631707029,,46 Ladbroke Grove,London,,,W11 2PA,Mr Magyar and Ms Phillips,Mr P Magyar & Ms D Phillips,020 7727 4090,07767 787 589,,,,0,0,0,0,0,0,,,
Ken-0232,Eva,Magyar,Eva,,5,5KS,Becket,19-06-2000,Female,British,,,ENG,,,1,1,A207631705019,,46 Ladbroke Grove,London,,,W11 2PA,Mr Magyar and Ms Phillips,Mr P Magyar & Ms D Phillips,020 7727 4090,07767 787 589,,,,0,0,0,0,0,0,,,
Ken-0233,Susanna,Magyar,Zsuzsa,(Zsuzsa),6,6KE,Becket,23-10-1998,Female,British,,,ENG,,,1,1,B207631703008,,46 Ladbroke Grove,London,,,W11 2PA,Mr Magyar and Ms Phillips,Mr P Magyar & Ms D Phillips,020 7727 4090,07767 787 589,,,,0,0,0,0,0,0,,,
Ken-0234,Kasper,Mansfeldt,Kasper,Charles,3,3KS,Hardy,23-03-2002,Male,Norwegian,,,ENG,,,1,1,W207631707030,,48 Abbotsbury Close,London,,,W14 8EQ,Mr and Mrs Mansfeldt,Mr & Mrs C Mansfeldt,020 7603 9335,07711 683 952,,,,0,0,0,0,0,0,,,
Ken-0235,Adam,Mapstone,Adam,Charles Henry,3,3KS,More,07-02-2002,Male,British,,NO,ENG,,,1,1,K207631707031,,32 Stanford Road,London,,,W8 5PZ,Mr Mapstone and Miss Hickman,Mr R Mapstone & Miss R Hickman,020 7376 9828,07786 262 066,,,,0,0,0,0,0,0,,,
Ken-0236,Kara,Mapstone,Kara,,2,2KN,More,13-08-2003,Female,British,,NO,ENG,2007,,1,1,T207631708027,,32 Stanford Road,London,,,W8 5PZ,Mr Mapstone and Miss Hickman,Mr R Mapstone & Miss R Hickman,020 7376 9828,07786 262 066,,,,0,0,0,0,0,0,,,
Ken-0237,Julia,Marano,Julia,,6,6KS,Becket,26-09-1998,Female,,,,,,,0,0,Q207631703009,,1 Belgrave Place,London,,,SW1X 8BU,Mrs Marano,Mrs Marano,020 7235 1508,07779 889 501,,,,0,0,0,0,0,0,,,
Ken-0238,Cristina,Marson,Cristina,,3,3KN,Becket,10-06-2002,Female,,,,ENG,,,1,1,Z207631707032,CMar1@Ken.thomasvle.org,20 Cottesmore Court,Stanford Road,London,,W8 5QN,Mr and Mrs Marson,Mr & Mrs P Marson,020 7938 3288,07900 405 367,,,,0,0,0,0,0,0,,,
Ken-0239,Albie,Mayo,Albie,,5,5KN,Hardy,06-11-1999,Male,British,,CATH,ENG,2007,,0,0,C207631704031,,23 St Quintin Avenue ,London,,,W10 6NX,Mr and Mrs Mayo,Mr & Mrs J Mayo,020 8969 8799,07774 989 236,,,,0,0,0,0,0,0,,,
Ken-0240,Harley,Mayo,Harley,,2,2KS,Hardy,21-10-2002,Male,,,CATH,,2007,,0,0,N207631707033,,23 St Quintin Avenue ,London,,,W10 6NX,Mr and Mrs Mayo,Mr & Mrs J Mayo,020 8969 8799,07774 989 236,,,,0,0,0,0,0,0,,,
Ken-0241,Isobel,McCrum,Isobel,,6,6KE,More,05-05-1999,Female,,,,,,,0,0,R207631704032,,12 Eldon Road,London,,,W8 5PU,Mr and Mrs McCrum,Mr & Mrs R McCrum,020 7937 3575,07909 965 317,,,,0,0,0,0,0,0,,,
Ken-0245,Maya,McQueen,Maya,,6,6KN,More,03-09-1998,Female,,,NO,ENG,,,1,1,B207631703010,,52 Caithness Road,London,,,W14 0JD,Mr McQueen and Mrs Kotrotisis,Mr C McQueen & Mrs T Kotrotisis,020 7371 1997,07976 840 450,,,,0,0,0,0,0,0,,,
Ken-0247,Alice,McQueen,Alice,,2,2KN,More,11-11-2002,Female,,,NO,ENG,2007,,1,1,C207631707034,,52 Caithness Road,London,,,W14 0JD,Mr McQueen and Mrs Kotrotisis,Mr C McQueen & Mrs T Kotrotisis,020 7371 1997,07976 840 450,,,,0,0,0,0,0,0,,,
Ken-0248,Ella,McQueen,Ella,,4,4KN,More,13-01-2001,Female,,,NO,ENG,,,1,1,C207631706033,,52 Caithness Road,London,,,W14 0JD,Mr McQueen and Mrs Kotrotisis,Mr C McQueen & Mrs T Kotrotisis,020 7371 1997,07768 298 965,,,,0,0,0,0,0,0,,,
Ken-0249,Maximilian,Meissner,Maximilian,,2,2KE,More,02-05-2003,Male,,,ROM,ENG,2007,,0,1,G207631708028,,2 Holland Villas Road,London,,,W14 8BP,Mr and Mrs Meissner,Mr & Mrs C Meissner,020 7348 0031,07802 300 720,,,,0,0,0,0,0,0,,,
Ken-0250,Luciana,Meissner,Luciana,,4,4KN,More,10-08-2001,Female,,,ROM,ENG,,,1,1,R207631706034,,2 Holland Villas Road,London,,,W14 8BP,Mr and Mrs Meissner,Mr & Mrs C Meissner,020 7348 0031,07802 300 720,,,,0,0,0,0,0,0,,,
Ken-0251,Alexia,Milliken,Alexia,,5,5KN,Hardy,10-05-2000,Female,British,,,ENG,,,1,1,A207631705021,,29 Scarsdale Villas,London,,,W8 6PU,Mr & Mrs Milliken,Mr & Mrs R Milliken,020 7937 9225,07979 537 700,,,,0,0,0,0,0,0,,,
Ken-0253,Julie,Molenaar,Julie,Elizabeth,3,3KS,More,04-10-2001,Female,Dutch,,,ENG,,,1,1,F207631706035,,85 Barkston Gardens,London,,,SW5 0EU,Mr and Mrs Molenaar,Mr & Mrs Molenaar,020 7370 6769,07771 787 472,,,,0,0,0,0,0,0,,,
Ken-0254,Grace,Morgan,Grace,,6,6KE,Hardy,22-11-1998,Female,,,,,,,0,0,Q207631703011,,89 St Dunstans Road,London,,,W6 8RE,Mr and Mrs Morgan,Mr & Mrs C Morgan,020 8846 9484,07801 098 173,,,,0,0,0,0,0,0,,,
Ken-0255,Zeenia,Munchow,Zeenia,Johanna,3,3KE,Hardy,16-11-2001,Female,American,,,ENG,,,1,1,V207631706036,,14 Hereford Road,London,,,W2 4AA,Miss Munchow,Mr & Mrs H Munchow,020 7221 6903,07976 787 581,,,,0,0,0,0,0,0,,,
Ken-0256,Thomas,Nasr,Thomas,,6,6KN,Lawrence,30-04-1999,Male,,,,,,,0,0,F207631704033,,Flat 1,55 Melbury Road,London,,W14 8AD,Mr and Mrs Nasr,Mr & Mrs M Nasr,020 7602 4498,07803 165 954,,,,0,0,0,0,0,0,,,
Ken-0258,Ella,Nichols,Ella,,2,2KN,Lawrence,19-08-2003,Female,British,,,ENG,,,0,0,W207631708029,,8 Douro Place,London,,,W8 5PH,Mr & Mrs Nichols,Mr & Mrs J Nichols,020 7368 6574,07768 298 965,,,,0,0,0,0,0,0,,,
Ken-0260,Raef,O'Brien,Raef,Pater William,2,2KN,Lawrence,24-01-2003,Male,,,,,,,0,0,G207631708030,,13 Vicarage Gardens,London,,,W8 4AH,Mr and Mrs O'Brien,Mr & Mrs P O'Brien,020 7229 9253,07894 666 266,,,,0,0,0,0,0,0,,,
Ken-0262,Maximillian,Olsher,Max,,2,2KE,Becket,14-12-2002,Male,American,,,ENG,,,0,0,R207631707035,Mols1@Ken.thomasvle.org,21 Launceston Place,London,,,W8 5RL,Mr and Mrs Olsher,Mr & Mrs B Olsher,020 7937 9686,07801 098 167,,,,0,0,0,0,0,0,,,
Ken-0263,Rollo,Orme,Rollo,John,3,3KE,Hardy,28-05-2002,Male,,,,ENG,,,1,1,F207631707036,,15 Pagoda Avenue,Richmond,,,TW9 2HQ,Mr and Mrs Orme,Mr & Mrs S Orme,020 8948 6443,07952 776 814,,,,0,0,0,0,0,0,,,
Ken-0264,Aneshka,Orme,Aneshka,,4,4KE,Hardy,21-12-2000,Female,,,,ENG,,,1,1,P207631705022,,15 Pagoda Avenue,Richmond,,,TW9 2HQ,Mr and Mrs Orme,Mr & Mrs S Orme,020 8948 6443,07952 776 814,,,,0,0,0,0,0,0,,,
Ken-0265,Caspar,Osborne-Young,Caspar,William,3,3KE,More,29-05-2002,Male,British,,CATH,ENG,,,1,1,V207631707037,,19 Alexander Street,London,,,W2 5NT,Mr and Mrs Osborne-Young,Mr & Mrs W Osborne-Young,020 7727 1788,07973 140 080,,,,0,0,0,0,0,0,,,
Ken-0267,Lucilla,Partridge,Lucilla,Scarlett,3,3KE,More,11-03-2002,Female,British,,,ENG,,,1,1,J207631707038,,8 Gloucester Walk,London,,,W8 4HZ,Mr and Mrs Partridge,Mr & Mrs W Partridge,020 7937 4551,07710 783 231,,,,0,0,0,0,0,0,,,
Ken-0268,Talisa,Pham-Quang,Talisa,,2,2KS,Lawrence,28-06-2003,Female,,,,,,,0,0,W207631708031,,4 St George's Court,Gloucester Road,London,,SW7 4QZ,Mr and Mrs Pham-Quang,Mr & Mrs B Pham-Quang,020 7589 0140,07884 434 030,,,,0,0,0,0,0,0,,,
Ken-0272,James,Pilbrow,James,Sebastien,2,2KN,Hardy,14-06-2003,Male,,,,,,,0,0,K207631708032,,51 Caithness Road ,London,,,W14 0JD,Mr and Mrs Pilbrow,Mr & Mrs M Pilbrow,020 7603 0600,07881 621066,,,,0,0,0,0,0,0,,,
Ken-0273,Poppy,Pilbrow,Poppy,Isabelle,2,2KN,Hardy,14-06-2003,Female,,,,,,,0,0,Z207631708033,,51 Caithness Road ,London,,,W14 0JD,Mr and Mrs Pilbrow,Mr & Mrs M Pilbrow,020 7603 0600,07941 454 221,,,,0,0,0,0,0,0,,,
Ken-0275,Jessica,Pitsillides,Jessica,,2,2KN,Lawrence,23-10-2002,Female,,,,ENG,,,0,0,Y207631707039,,2 Abingdon Court,Abingdon Villas,London,,W8 6BS,Mr Pitsillides and Mrs Papadopoulos,Mr T Pitsillides & Mrs T Papadopoulos,020 7795 6072,07780 696 221,,,,0,0,0,0,0,0,,,
Ken-0276,Clara,Pudman,Clara,,4,4KS,Becket,28-09-2000,Female,,,,ENG,,,0,0,D207631705023,,3 Apsley Mansions,Clarincade Gardens,London,,W2 4JH,Mr and Mrs Pudman,Mr & Mrs L Pudman,020 7727 3659,07939 015 121,,,,0,0,0,0,0,0,,,
Ken-0277,Luke,Pudman,Luke,,2,2KN,Becket,13-11-2002,Male,,,CATH,ENG,,,0,0,J207631707040,,3 Apsley Mansions,Clanricade Gardens,London,,W2 4JH,Mr and Pudman,Mr & Mrs L Pudman,020 7937 2566,07939 015 121,,,,0,0,0,0,0,0,,,
Ken-0279,Benedict,Pymont,Ben,Anthony,2,2KN,More,26-02-2003,Male,British,,,ENG,,,1,1,N207631708034,,14 Porchester Terrace,London,,,W2 3TL,Mr and Mrs Pymont,Mr & Mrs C Pymont,020 7328 3368,,,,,0,0,0,0,0,0,,,
Ken-0280,Charles,Read,Charley,Peter Henry,2,2KS,More,08-12-2002,Male,British,,,ENG,,,1,1,Y207631707041,,32 Chepstow Road,London,,,W2 5BE,Mr and Mrs Read,Mr & Mrs R Read,020 7792 2727,07717 747 865,,,,0,0,0,0,0,0,,,
Ken-0281,Augustus,Read,Augustus,,4,4KS,More,23-03-2001,Male,British,,,ENG,,,1,1,J207631706037,,32 Chepstow Road,London,,,W2 5BE,Mr and Mrs Read,Mr & Mrs R Read,020 7792 2727,07717 747 865,,,,0,0,0,0,0,0,,,
Ken-0284,Stephen,Richmond,Stephen,,5,5KN,More,21-10-1999,Male,,,,ENG,,,0,0,V207631704034,,54 Stanford Road,London,,,W8 5PZ,Mr Richmond and Mrs Cepuch,Mr Richmond and Mrs Cepuch,020 7937 7002,07802 943 800,,,,0,0,0,0,0,0,,,
Ken-0286,Sebastian,Rodger,Sebastian,Henry,3,3KS,Becket,06-10-2001,Male,British,,CATH,ENG,,,1,1,Y207631706038,,15 Hyde Park Gate,London,,,SW7 5DG,Mr and Mrs Rodger,Mr & Mrs A C J Rodger,020 7823 8243,07710 073 935,,,,0,0,0,0,0,0,,,
Ken-0287,Eloise,Rodger,Eloise,Eugenie,2,2KS,Becket,15-08-2003,Female,British,,CATH,ENG,,,1,1,C207631708035,,15 Hyde Park Gate,London,,,SW7 5DG,Mr and Mrs Rodger,Mr & Mrs A C J Rodger,020 7823 8243,07710 073 935,,,,0,0,0,0,0,0,,,
Ken-0290,Amelia,Rushing,Amelia,Kate,3,3KN,Becket,22-04-2002,Female,,,,ENG,,,1,1,B207631707043,ARus1@Ken.thomasvle.org,18 Campden Grove,London,,,W8 4JG,Mr and Mrs Rushing,Mr & Mrs A Rushing,020 7938 3828,07767 871 078,,,,0,0,0,0,0,0,,,
Ken-0291,William,Rushing,William,,5,5KS,Becket,09-07-2000,Male,,,,ENG,,,1,1,T207631705024,,18 Campden Grove,London,,,W8 4JG,Mr and Mrs Rushing,Mr & Mrs A Rushing,020 7938 3828,07767 871078,,,,0,0,0,0,0,0,,,
Ken-0296,Sophia,Shaikh,Sophia,,3,3KS,Hardy,10-02-2002,Female,British,,NO,ENG,,,1,1,Q207631707044,,39 Ladbroke Square,London,,,W11 3ND,Mr and Mrs Shaikh,Mr & Mrs T Shaikh,020 7727 1220,07748 324 107,,,,0,0,0,0,0,0,,,
Ken-0297,Mia,Shaikh,Mia,,6,6KN,Hardy,09-05-1999,Female,British,,NO,ENG,,,1,1,J207631704035,,39 Ladbroke Square,London,,,W11 3ND,Mr and Mrs Shaikh,Mr & Mrs T Shaikh,020 7727 1220,07748 324 107,,,,0,0,0,0,0,0,,,
Ken-0298,Kourosh,Shirazi,Kourosh,Francisco,3,3KS,Becket,20-04-2002,Male,,,ROM,ENG,,,1,1,E207631707045,,59 Montrose Court,Princes Gate,London,,SW7 2QG,Mr and Mrs Shirazi,Mr & Mrs B Shirazi,020 7823 7451,07951 026 207,,,,0,0,0,0,0,0,,,
Ken-0303,Mina,Soso,Mina,,4,4KE,Lawrence,25-03-2001,Female,,,CATH,ENG,,,1,1,M207631706041,,32B Harrington Gardens,London,,,SW7 4LT,Mr Soso and Mrs Dragovic-Soso,Mr T Soso & Mrs J Dragovic-Soso,020 7373 5331,07876 722 892,,,,0,0,0,0,0,0,,,
Ken-0304,Grace,Spicer,Grace,,6,6KS,Becket,28-08-1999,Female,,,,,,,0,0,Y207631704036,,60 Adam and Eve Mews,London,,,W8 6UJ,Mr and Mrs Spicer,Mr & Mrs C Spicer,020 7937 4469,07899 813 636,,,,0,0,0,0,0,0,,,
Ken-0307,Andrew,Spielmann,Andrew,Arthur,2,2KS,Becket,28-10-2002,Male,American,,CATH,ENG,,,0,0,U207631707046,,8 Hamston House,Kensington Court Place,London,,W8 5BL,Mr and Mrs Spielmann,Mr & Mrs K Spielmann,020 7376 0021,,,,,0,0,0,0,0,0,,,
Ken-0308,Isabella,Sportelli,Isabella,,5,5KS,Becket,24-06-2000,Female,,,CATH,ENG,,,1,1,W207631705026,,Flat 14,85 Cadogan Gardens,London,,SW3 2RD,Mr and Mrs Sportelli,Mr & Mrs M Sportelli,020 7589 4123,07785 747 382,,,,0,0,0,0,0,0,,,
Ken-0309,Sofia,Sportelli,Sofia,,5,5KN,Becket,24-06-2000,Female,,,CATH,ENG,,,1,1,K207631705027,,Flat 14,85 Cadogan Gardens,London,,SW3 2RD,Mr and Mrs Sportelli,Mr & Mrs M Sportelli,020 7589 4123,07785 747 382,,,,0,0,0,0,0,0,,,
Ken-0311,Frederick,Stone,Frederick,,4,4KN,Hardy,12-12-2000,Male,British,,CATH,ENG,,,1,1,Z207631705028,,8 St Albans Grove,London,,,W8 5PN,Mr and Mrs Stone,Mr & Mrs A Stone,020 7937 6379,07774 433 316,,,,0,0,0,0,0,0,,,
Ken-0312,Dominic,Stone,Dominic,,2,2KN,Hardy,27-12-2002,Male,British,,ROM,ENG,,,1,1,H207631707047,,8 St Albans Grove,London,,,W8 5PN,Mr and Mrs Stone,Mr & Mrs A Stone,020 7937 6379,07774 433 316,,,,0,0,0,0,0,0,,,
Ken-0313,Maximilian,Straesser,Maximilian,Ishan,3,3KE,Becket,14-05-2002,Male,,,ROM,ENG,,,1,1,X207631707048,,60 Barkston Gardens,London,,,SW5 0EL,Mr Straesser and Mrs Gulati-Straesser,Mr M Straesser & Mrs A Gulati-Straesser,020 7370 7473,07803 726 993,,,,0,0,0,0,0,0,,,
Ken-0314,Auriane,Swannell,Auriane,,4,4KN,More,02-10-2000,Female,,,CATH,ENG,,,1,1,N207631705029,ASwa1@Ken.thomasvle.org,109 Old Church Street,London,,,SW3 6DX,Mr and Mrs Swannell,Mr & Mrs P Swannell,020 7352 3819,07900 693 213,,,,0,0,0,0,0,0,,,
Ken-0315,Dylan,Sweidan,Dylan,,3,3KE,More,16-01-2002,Male,,,,ENG,,,1,1,L207631707049,,11 Sumner Place,London,,,SW7 3EE,Mr and Mrs Sweidan,Mr & Mrs A Sweidan,020 7581 4420,07970 893 355,,,,0,0,0,0,0,0,,,
Ken-0316,Luke,Tannenbaum,Luke,,3,3KN,More,31-08-2001,Male,British,,,ENG,,,1,1,Q207631706043,LTan1@Ken.thomasvle.org,11 Russell Road,London,,,W14 8JA,Ms Juul,Ms P Juul,020 7603 2982,07775 638 425,,,,0,0,0,0,0,0,,,
Ken-0317,Samuel,Tannenbaum,Samuel,,6,6KE,More,10-07-1999,Male,British,,,ENG,,,1,1,M207631704037,,11 Russell Road,London,,,W14 8JA,Ms Juul,Ms P Juul,020 7603 2982,0777 563 8425,,,,0,0,0,0,0,0,,,
Ken-0319,Joshua,Taylor,Joshua,,4,4KN,More,10-12-2000,Male,British,,,ENG,,,1,1,Z207631705030,,29 Campden Hill Road,London,,,W8 7DX,Mr and Mrs Taylor,Mr & Mrs M Taylor,020 7376 1377,07831 248 782,,,,0,0,0,0,0,0,,,
Ken-0321,Tyger,Tholstrup,Tyger,,6,6KE,Becket,24-12-1998,Male,,,,ENG,,,1,1,E207631703012,,22 Pembroke Square,London,,,W8 6PB,Mr and Mrs Tholstrup,Mr & Mrs S Tholstrup,020 7938 1717,07710 031 520,,,,0,0,0,0,0,0,,,
Ken-0322,Skye,Tholstrup,Skye,,4,4KE,Becket,31-03-2001,Female,,,,ENG,,,1,1,E207631706044,,22 Pembroke Square,London,,,W8 6PB,Mr and Mrs Tholstrup,Mr & Mrs S Tholstrup,020 7938 1717,07710 031 520,,,,0,0,0,0,0,0,,,
Ken-0323,Sabrina,Tischhauser,Sabrina,,5,5KN,More,16-12-1999,Female,British,,PROT,ENG,,,1,1,B207631704038,,7 Eccleston Square,London,,,SW1V 1NP,Mr and Mrs Tischhauser,Mr & Mrs H Tischhauser,020 7802 9718,07881 523341,,,,0,0,0,0,0,0,,,
Ken-0324,Brando,Tome,Brando,,4,4KE,Becket,26-07-2001,Male,,,CATH,ENG,,,1,1,U207631706045,,7 Abbots Court,Thackeray Street,London,,W8 5ES,Mr and Mrs Tome,Mr & Mrs A Tome,020 7937 5898,07768 744 644,,,,0,0,0,0,0,0,,,
Ken-0325,Xander,Tome,Xander,,4,4KS,Becket,26-07-2001,Male,,,CATH,ENG,,,1,1,H207631706046,,7 Abbots Court,Thackeray Street,London,,W8 5ES,Mr and Mrs Tome,Mr & Mrs A Tome,020 7937 5898,07768 744 644,,,,0,0,0,0,0,0,,,
Ken-0328,Max,Ungless,Max,,2,2KN,Hardy,28-08-2003,Male,,,,ENG,,,0,0,F207631708037,,Flat 3 ,21a Kensington Church Street,London,,W8 4LF,Mr Ungless and Mrs Francis,Mr M Ungless & Mrs C Francis,020 7368 6629,07930 500 500,,,,0,0,0,0,0,0,,,
Ken-0329,Lilly,Vadaneaux,Lilly,Victoria,3,3KE,Becket,12-02-2002,Female,,,,ENG,,,1,1,X207631707050,,64 Barkston Gardens,London,,,SW5 0EL,Mr and Mrs Vadaneaux,Mr & Mrs V Vadaneaux,020 7370 2627,07785 257 941,,,,0,0,0,0,0,0,,,
Ken-0332,Alexander,Van Lomwel,Alexander,,4,4KN,More,10-10-2000,Male,,,PROT,ENG,,,1,1,N207631705031,,39 Campden Hill Road,London,,,W8 7DX,Mr and Mrs Van Lomwel,Mr & Mrs D Van Lomwell,020 7938 4621,07770 942 042,,,,0,0,0,0,0,0,,,
Ken-0338,Timothy,Weiss,Timothy,,4,4KS,Lawrence,13-07-2001,Male,British,,,ENG,,,1,1,L207631706048,,6 Earls Terrace,London,,,W8 6LP,Mr and Mr Weiss,Mr & Mrs J Weiss,020 7603 2829,07921 527 327,,,,0,0,0,0,0,0,,,
Ken-0342,Alexander,Wilson,Alexander,,4,4KS,Becket,05-05-2001,Male,British,,,ENG,,,1,1,A207631706049,,40 Upcerne Road,London,,,SW10 0SQ,Mr and Mrs Wilson,Mr & Mrs J Wilson,020 7376 8456,07958 721 422,,,,0,0,0,0,0,0,,,
Ken-0343,Nikolas,Winters,Nikolas,,6,6KE,Lawrence,06-10-1998,Male,,,,,,,0,0,U207631703013,,81 Addison Road,London,,,W14 8ED,Mr and Mrs Winters,Mr & Mrs B Winters,020 7348 0070,07768 963 867,,,,0,0,0,0,0,0,,,
Ken-0345,Hannah,Wuensche,Hannah,,6,6KN,Hardy,23-11-1998,Female,,,,,,,0,0,H207631703014,,1 Cornwall Mews West,London,,,SW7 4BH,Mr Wuensche and Mrs Ji,Mr P Wuensche & Mrs S-Y Ji,020 7937 7262,07909 538427,,,,0,0,0,0,0,0,,,
Ken-0346,Larry,Wyatt,Larry,,5,5KN,Becket,01-06-2000,Male,British,,,ENG,,,1,1,R207631705033,,66 Flood Street,London,,,SW3 5TE,Mr and Mrs Wyatt,Mr & Mrs R Wyatt,020 7349 9366,07973 407 976,,,,0,0,0,0,0,0,,,
Ken-0347,Millar,Wyatt,Millar,Rose,2,2KE,Becket,10-07-2003,Female,,,,,,,0,0,V207631708038,,66 Flood Street,London,,,SW3 5TE,Mr and Mrs Wyatt,Mr & Mrs R Wyatt,020 7349 9366,07973 407 976,,,,0,0,0,0,0,0,,,
Ken-0348,Sharaf,Younes,Sharaf,,3,3KN,Hardy,11-10-2001,Male,British,,CATH,ENG,,,0,0,L207631706050,Syou1@Ken.thomasvle.org,Flat 4,35 Queens Gate Gardens,London,,SW7 5RR,Mr Younes,,020 7581 8558,07740576216,,,,0,0,0,0,0,0,,,
Ken-0349,Sam,Zia,Sam,Pirooz,2,2KS,Lawrence,09-09-2002,Male,,,,,,,0,0,P207631707053,,17 Kelso Place,London,,,W8 5QD,Mr Zia,,020 7361 1638,,,,,0,0,0,0,0,0,,,
Ken-0351,Aryan,Kumar,Aryan,Kumar,2,2KS,Becket,10-01-2003,Male,,,,ENG,2007,,0,0,J207631708039,,1 Geldhow Gardens,London,,,SW5 0BL,Mr and Mrs Kumar,Mr & Mrs S Kumar,07773 397 341,,,,WM,0,0,0,0,0,0,,,
Ken-0352,Natalia,Fares,Natalia,Fares,6,6KS,More,09-04-1999,Female,Jordan,,Greek,ENG,,,0,0,Q207631704039,,4 Redcliffe Square,London,,,SW10 9JZ,Mr and Mrs Fares,Mr & Mrs M Fares,020 7373 4934,,,,WM,0,0,0,0,0,0,,,
Ken-0505,Jad,Abuzayyad,Jad,,0,RKE,Hardy,09-09-2004,Male,British,,,,2009,,0,0,T207631709001,,19 Kensington Gate,London,,,W8 5NA,Mr & Mrs Abuzayyad,Mr & Mrs T Abuzayyad,020 7838 0902,,21-01-2009,09:00,,0,0,0,0,0,0,,,
Ken-0521,Elodie,America,Elodie,Genevieve,1,1KE,Becket,08-07-2004,Female,,,CATH,ENG,2008,,1,1,G207631709002,,20 Hereford Square,London,,,SW7 4TS,Mr & Mrs America,Mr & Mrs G America,020 7244 8579,,,,WM,0,0,0,0,0,0,,,
Ken-0525,Srira Rose,Amrolia,Srira Rose,,0,RKE,Lawrence,28-06-2005,Female,British,,OT,ENG,2009,,0,0,N207631709064,,13 Albert Place,London,,,W8 5PD,Dr & Mrs Amrolia,Dr & Mrs Z Amrolia,020 7376 9166,,20-01-2009,09:00,SI,0,0,0,0,0,0,,,
Ken-0532,Anna,Antakly,Anna,Natasha,0,RKE,Becket,01-10-2004,Female,French,,ANG,,2009,,0,0,W207631709003,,10 Victoria Grove,London,,,W8 5RW,Mr & Mrs Antakly,Mr & Mrs M Antakly,020 7565 2895,,21-01-2009,10:00,,0,0,0,0,0,0,,,
Ken-0543,Louisa,Archer,Louisa,,0,RKN,Hardy,08-08-2005,Female,British,,,ENG,2009,,0,0,C207631709065,,18 Cottesmore Gardens,London,,,W8 5PR,Mr & Mrs Archer,Mr & Mrs K Archer,020 7937 1953,,20-01-2009,10:00,SI,0,0,0,0,0,0,,,
Ken-0545,Annika,Arora,Annika,,1,1KN,Becket,04-01-2004,Female,,,,,2008,,0,0,K207631709004,,174 Coleherne Court,Redcliffe Gardens,London,,SW5 0DU,Mr and Mrs Arora,Mr & Mrs S Arora,020 7244 8915,,,,WM,0,0,0,0,0,0,,,
Ken-0553,Mia,Azmoudeh,Mia,,1,1KE,More,28-06-2004,Female,,,,,2008,,0,0,Z207631709005,,8 Wycombe Square,London,,,W8 7JD,Mr and Mrs Azmoudeh,Mr & Mrs M Azmoudeh,020 3220 0185,,,,SI,0,0,0,0,0,0,,,
Ken-0567,Samuel,Baines,Samuel,,1,1KN,Hardy,25-11-2003,Male,,,,,2008,,0,0,V207631708040,,20 Eldon Road,London,,,W8 5PT,Mr and Mrs Baines,Mr & Mrs R Baines,020 7937 3635,,,,WM,0,0,0,0,0,0,,,
Ken-0571,Edward John,Banham,Edward,,1,1KN,More,19-01-2004,Male,,,,,2008,,0,0,N207631709006,,Flat 2,35 Lexham Gardens,London,,W8 5JR,Mr and Mrs Banham,Mr & Mrs M Banham,020 7370 0309,,,,WM,0,0,0,0,0,0,,,
Ken-0578,Luke,Barker,Luke,,0,RKN,Becket,26-05-2005,Male,British,,,ENG,2009,,0,0,R207631709066,LBar1@Ken.thomasvle.org,2 Albert Place,London,,,W8 5PD,Mr & Mrs Barker,Mr & Mrs G Barker,020 7937 6006,,27-01-2009,11:00,SI,0,0,0,0,0,0,,,
Ken-0592,Conrad Maximilian,Becker,Conrad,,1,1KN,Becket,18-05-2004,Male,,,,,2008,,0,0,C207631709007,,16 Alexander Street,London,,,W2 5NT,Mr and Mrs Becker,Mr & Mrs B Becker,020 7243 6580,,,,SI,0,0,0,0,0,0,,,
Ken-0618,Thomas,Birch,Thomas,Inigo,0,RKS,Hardy,07-09-2004,Male,British,,,ENG,2009,,0,0,R207631709008,,16 Abingdon Villas,London,,,W8 6BX,Mr & Mrs Birch,Mr & Mrs J Birch,020 7937 7403,,19-01-2009,09:00,SI,0,0,0,0,0,0,,,
Ken-0623,Claudia,Bjerregaard,Claudia,,0,RKE,Becket,25-11-2004,Female,Danish,,,,2009,,0,0,F207631709009,,27 Launceston Place,London,,,W8 5RN,Mr & Mrs Bjerregaard,Mr & Mrs T Bjerregaard,020 7368 6248,,22-01-2009,10:00,,0,0,0,0,0,0,,,
Ken-0630,Michael,Blitzer,Michael,Harry,1,1KE,Lawrence,04-06-2004,Male,,,,,2008,,0,0,R207631709010,MBli1@Ken.thomasvle.org,5 Carlyle Square,London,,,SW3 6EX,Mr and Mrs Blitzer,Mr & Mrs D Blitzer,020 7352 1117,,,,SI,0,0,0,0,0,0,,,
Ken-0633,Alexandra,Bobolakis,Sasha,Maria,0,RKS,Lawrence,27-05-2005,Female,British,,ROM,,2009,,0,0,F207631709067,,Flat 4,95 Lexham Gardens,London,,W8 6JN,Dr Bobolakis & Mrs Bainbridge Bobolakis,Dr Z Bobolakis & Mrs A-M Bainbridge Bobolakis,020 7373 4785,,28-01-2009,09:00,,0,0,0,0,0,0,,,
Ken-0661,Erin,Brooks Wadham,Erin,,1,1KN,Hardy,10-12-2003,Female,,,,,2008,,0,0,J207631708041,,22 Onslow Gardens,London,,,SW7 3AL,Mr and Mrs Brooks Wadham,Mr & Mrs M Brooks Wadham,020 7581 4966,,,,SI,0,0,0,0,0,0,,,
Ken-0672,Aline,Buckens,Aline,Fiona,1,1KN,Lawrence,21-10-2003,Female,,,,,2008,,0,0,Y207631708042,,38 Porchester Terrace,London,,,W2 3TP,Mr and Mrs Buckens,Mr & Mrs J Buckens,020 7262 0441,,22-01-2008,,SI,0,0,0,0,0,0,,,
Ken-0674,Sophia,Buckley,Sophia,,1,1KN,Lawrence,28-05-2004,Female,,,,,2008,,0,0,F207631709011,,2 Roxburghe Mansions,32 Kensington Court,London,,W8 5BQ,Mr and Mrs Buckley,Mr & Mrs P Buckley,020 7937 4784,,,,WM,0,0,0,0,0,0,,,
Ken-0679,Dominic,Buxton,Dominic,Francis,1,1KN,Becket,18-06-2004,Male,,,,,2008,,0,0,V207631709012,,70 Palace Gardens Terrace,London,,,W8 4RR,Mr and Mrs Buxton,Mr & Mrs E Buxton,020 7229 1886,,,,SI,0,0,0,0,0,0,,,
Ken-0698,Michael,Carney,Michael,Robert,0,RKE,Becket,12-05-2005,Male,American,,,ENG,2009,,0,0,V207631709068,,15 Brunswick Gardens,London,,,W8 4AS,Mr & Mrs Carney,Mr & Mrs S Carney,020 7727 8576,,19-01-2009,11:00,,0,0,0,0,0,0,,,
Ken-0702,Andrea,Carrara de Sambuy,Andrea,Bernardo,1,1KE,More,29-02-2004,Male,,,,,2008,,0,0,J207631709013,,Flat 1 ,10 Bolton Gardens,London,,SW5 0AW,Mr Carrara de Sambuy and Mrs Bossi,Mr A Carrara de Sambuy & Mrs S Bossi,020 7835 2293,,,,SI,0,0,0,0,0,0,,,
Ken-0715,Jack,Chenevix-Trench,Jack,Ward,1,1KE,Hardy,16-04-2004,Male,,,,,2008,,0,0,Y207631709014,,4 Albert Place,London,,,W8 5PD,Mr and Mrs Chevenix-Trench,Mr & Mrs J Chevenix-Trench,020 7376 1193,,,,SI,0,0,0,0,0,0,,,
Ken-0725,Kristin,Cline,Kristin,,0,RKE,Lawrence,08-04-2005,Female,British,,,,2009,,0,0,J207631709069,,6 Kensington Court Place,London,,,W8 5BJ,Mr & Mrs Cline,Mr & Mrs N Cline,020 7795 6638,,26-01-2009,11:00,,0,0,0,0,0,0,,,
Ken-0730,Amelie,Colls,Amelie,Beatrice,1,1KS,Becket,03-12-2003,Female,,,,,2008,,0,0,M207631708043,,102 Earl's Court Road,London,,,W8 6EG,Mr and Mrs Colls,Mr & Mrs T Colls,020 7938 3518,,,,WM,0,0,0,0,0,0,,,
Ken-0744,Inigo,Cottam,Inigo,,0,RKN,Lawrence,13-07-2005,Male,British,,,ENG,2009,,0,0,V207631709070,,5 Cambridge Place,London,,,W8 5PB,Mr & Mrs Cottam,Mr & Mrs C ottam,020 7937 6549,,20-01-2009,10:00,SI,0,0,0,0,0,0,,,
Ken-0794,Hayley,de Pelet,Hayley,,1,1KN,More,03-10-2003,Female,,,,,2008,,0,0,B207631708044,,40 Addison Avenue ,London,W11 4QP,,W8 6UJ,Mr and Mrs de Pelet,Mr & Mrs H de Pelet,07771 511 990,,,,WM,0,0,0,0,0,0,,,
Ken-0799,Felice Antoinette,De Reuver,Felice,,0,RKE,Becket,12-05-2005,Female,Dutch,,CATH,,2009,,0,0,,,Flat 3 ,93 Lexham Gardens,London,,W8 6JN,Mr and Mrs de Reuver,Mr & Mrs B de Reuver,,,27-01-2009,10:00,,0,0,0,0,0,0,,,
Ken-0807,Alexandra,Isman,Sasha,Olga,0,RKS,Hardy,28-06-2005,Female,French,,ROM,ENG,2009,,0,0,J207631709071,,Flat 3,22 Cottesmore Gardens,London,,W8 5PR,Mr & Mrs Isman,Mr & Mrs Isman,020 7368 6427,,20-01-2009,09:00,SI,0,0,0,0,0,0,,,
Ken-0808,Maria-Teresa,Rodger,Maria-Teresa,Alexandra,0,RKS,Becket,13-05-2005,Female,British,,CATH,ENG,2009,,0,0,Y207631709072,,15 Hyde Park Gate,London,,,SW7 5DG,Mr & Mrs Rodger,Mr & Mrs A C J Rodger,020 7823 8243,,19-01-2009,11:00,SI,0,0,0,0,0,0,,,
Ken-0809,Alexander,Weiss,Alexander,Frederick,0,RKN,Lawrence,01-08-2005,Male,British,,,ENG,2009,,0,0,M207631709073,,6 Earls Terrace,London,,,W8 6LP,Mr & Mrs Weiss,Mr & Mrs J Weiss,020 7603 2829,,20-01-2009,10:00,SI,0,0,0,0,0,0,,,
Ken-0817,Sara,Galal,Sara,,0,RKN,Becket,07-04-2005,Female,British,,NO,ENG,2009,,0,0,B207631709074,,55 Addison Road,London,,,W14 8JJ,Dr Galal & Ms Antunes da Silva,Dr H Galal & Ms C Antunes da Silva,,,26-01-2009,11:00,,0,0,0,0,0,0,,,
Ken-1933,Cosmo,Vereker,Cosmo,William,2,2KE,Lawrence,03-05-2003,Male,,,,,2009,,0,0,D207631709110,,13 Dawson Place,London,,,W2 4TH,Mr and Mrs Vereker,Mr & Mrs W Vereker,020 7727 2919,,,,,0,0,0,0,0,0,,,
Ken-1947,Jenifer,Ellis,Jenifer,Elizabeth,1,1KS,More,01-10-2003,Female,,,,,2008,,0,0,Q207631708045,,39 Clarendon Road,London,,,W11 4JB,Mr Ellis and Mrs Vyse,Mr M Ellis & Mrs M Vyse,020 7229 9952,,,,SI,0,0,0,0,0,0,,,
Ken-1955,Aidan,Ferrand,Aidan,Miles,1,1KS,Lawrence,08-10-2003,Male,,,,,2008,,0,0,E207631708046,,81 Princes House,50 Kensington Park Road,London,,W11 3BW,Mr and Mrs Ferrand,Mr & Mrs H Ferrand,020 7792 4676,,,,SI,0,0,0,0,0,0,,,
Ken-1963,Rosie,George,Rosie,,1,1KS,Hardy,15-07-2004,Female,,,,,2008,,0,0,B207631709016,,7 Cambridge Place,London,,,W8 5PB,Mr and Mrs George,Mr & Mrs M George,020 7937 4338,,,,WM,0,0,0,0,0,0,,,
Ken-1972,Nicholas,Haas,Nicholas,Anton,1,1KS,More,11-03-2004,Male,Austrian,,CATH,,2008,,0,0,Q207631709017,,5 Observatory Gardens,London,,,W8 7HY,Mr and Mrs Hass,Mr & Mrs M Haas,020 7361 1795,,,,WM,0,0,0,0,0,0,,,
Ken-1977,Sebastian,Hoornweg,Sebastian,Matteo,1,1KN,Lawrence,21-04-2004,Male,,,,,2008,,0,0,E207631709018,,44a Holland Park,London,,,W11 3RP,Mr Hoornweg and Van Roost,Mr R Hoornweg & Mrs K Van Roost,020 7243 9394,,,,WM,0,0,0,0,0,0,,,
Ken-1984,Joseph,Hunt,Joseph,Patrick,1,1KS,Lawrence,01-07-2004,Male,,,,,2008,,0,0,U207631709019,,Flat 1,27 Kensington Court,London,,W8 5DH,Mr and Mrs Hunt,Mr & Mrs K Hunt,020 7938 2232,,,,SI,0,0,0,0,0,0,,,
Ken-1989,Eric,Jealous,Eric,Daniel,1,1KE,Hardy,29-08-2004,Male,,,,,2008,,0,0,E207631709020,,62 Rowan Lodge,Chantry Square,London,,W8 5UJ,Mr and Mrs Jealous,Mr & Mrs M Jealous,020 7243 0853,,,,SI,0,0,0,0,0,0,,,
Ken-1998,Defne,Kilicozlu,Defne,,1,1KS,Hardy,15-05-2004,Female,,,,,2008,,0,0,U207631709021,,Flat 4 Cottesmore Court,Stanford Road,London,,W8 5QL,Mr and Mrs Kilicozlu,Mr & Mrs E Kilicozlu,020 7938 3800,,,,WM,0,0,0,0,0,0,,,
Ken-1999,Samuel,Kirley,Samuel,Joshua,1,1KN,More,06-12-2003,Male,American,,,ENG,2008,,0,0,H207631708048,,16 Scarsdale Villas,London,,,W8 6PR,Mr and Mrs Kirley,Mr & Mrs T Kirley,020 7368 6607,,,,WM,0,0,0,0,0,0,,,
Ken-2005,Jake,Kump,Jake,Aldiss,1,1KN,Hardy,25-08-2004,Male,,,,,2008,,0,0,H207631709022,,218 Westbourne Park Road,,,,W11 1EP,Mr and Mrs Kump,Mr & Mrs E Kump,020 7243 4605,,,,WM,0,0,0,0,0,0,,,
Ken-2012,Sean,Lincoln,Sean,Francis,1,1KN,Becket,13-08-2004,Male,,,,,2008,,0,0,X207631709023,,73 Campden Street,London,,,W8 7EN,Mr and Mrs Lincoln,Mr & Mrs R Lincoln,020 7727 9180,,,,WM,0,0,0,0,0,0,,,
Ken-2023,Vittoria,Mengelkamp,Victoria,,1,1KE,Becket,17-12-2003,Female,,,,,2008,,0,0,X207631708049,,Flat B,18 Kensington Church Street,London,,W8 4EP,Mr and Mrs Mengelkamp,Mr & Mrs G Mengelkamp,020 7376 9177,,,,WM,0,0,0,0,0,0,,,
Ken-2027,Isabel,Molenaar,Isabel,Marie,1,1KN,More,01-07-2004,Female,Dutch,,NO,ENG,2008,,1,1,L207631709024,,85 Barkston Gardens,London,,,SW5 0EU,Mr Molenaar & Ms De Kreij,Mr E Molenaar & Ms E De Kreij,020 7370 6769,,,,SI,0,0,0,0,0,0,,,
Ken-2029,George,Nasr,George,,1,1KS,Lawrence,12-07-2004,Male,,,,,2008,,0,0,A207631709025,,Flat 1,55 Melbury Road,London,,W14 8AD,Mr and Mrs Nasr,Mr & Mrs M Nasr,020 7602 4498,,,,SI,0,0,0,0,0,0,,,
Ken-2030,Andrea,Okun,Andrea,Roni,1,1KE,Lawrence,08-03-2004,Female,,,,,2008,,0,0,P207631709026,,1 Palace Garden Terrace,London,,,W8 4SA,Mr and Mrs Okun,Mr & Mrs A Okun,020 7792 9159,,,,,0,0,0,0,0,0,,,
Ken-2049,Benedict,Rivers,Benedict,Matthew,1,1KS,Becket,30-04-2004,Male,British,,,ENG,2009,,0,0,,,67 Palace Gardens Terrace,London,,,W8 4RU,Mr & Mrs Rivers,Mr & Mrs A Rivers,020 7221 2920,,06-01-2010,,SI,0,0,0,0,0,0,,,
Ken-2050,Oisin,Sadek,Oisin,Nadim,1,1KN,Lawrence,22-08-2004,Male,,,,,2008,,0,0,D207631709027,,35 Edwardes Square,London,,,W8 6HH,Mr and Mrs Sadek,Mr & Mrs N Sadek,020 7602 4735,,,,SI,0,0,0,0,0,0,,,
Ken-2065,William,Steel,William,,1,1KE,Lawrence,11-09-2003,Male,,,,,2008,,0,0,H207631708050,,41 Kenway Road,London,,,SW5 0RE,Mr & Mrs Steel,Mr & Mrs J Steel,020 7341 4659,,,,WM,0,0,0,0,0,0,,,
Ken-2069,Sebastian,Straesser,Sebastian,,1,1KS,Becket,12-01-2004,Male,,,,,2008,,0,0,T207631709028,,60 Barkston Gardens,London,,,SW5 0EL,Mr Straesser and Mrs Gulati-Straesser,Mr M Straesser & Mrs A Gulati-Straesser,020 7370 7473,,,,SI,0,0,0,0,0,0,,,
Ken-2071,Alexia,Suarez,Alexia,,1,1KS,Lawrence,09-09-2003,Female,American,,ROM,,2008,,0,0,X207631708051,,Flat 7,27 Queens Gate Terrace,London,,SW7 5PP,Mr Suarez and Mrs Carulla,Mr E Suarez & Mrs J Carulla,020 7584 1068,,,,WM,0,0,0,0,0,0,,,
Ken-2078,Charlotte,Van Lomwel,Charlotte,Georgia,1,1KE,More,28-10-2003,Female,,,,,2008,,0,0,L207631708052,,39 Campden Hill Road,London,,,W8 7DX,Mr and Mrs Van Lomwell,Mr & Mrs D Van Lomwell,020 7938 4621,,,,SI,0,0,0,0,0,0,,,
Ken-2082,Alex,Weatherall Green,Alex,Hendrix,1,1KN,More,03-07-2004,Male,,,,,2008,,0,0,G207631709029,,52 Stanford Road,London,,,W8 5PZ,Mr Green and Mrs Weatherall Green,Mr M Green & Mrs C Weatherall Green,020 7937 6084,,,,WM,0,0,0,0,0,0,,,
Ken-2083,Benedict,Weiss,Benedict,Christian,1,1KN,Lawrence,31-10-2003,Male,British,,,ENG,2008,,0,0,A207631708053,,6 Earls Terrace,London,,,W8 6LP,Mr and Mrs Wiess,Mr & Mrs Wiess,020 7603 2829,,,,SI,0,0,0,0,0,0,,,
Ken-2085,Mia,Williams,Mia,Chiharu Inoue,1,1KS,Becket,06-01-2004,Female,,,,,2008,,0,0,T207631709030,,Flat 11,Rowan Lodge ,Chantry Square,London,W8 5UJ,Mr and Mrs Williams,Mr & Mrs J Williams,020 7937 4552,,,,WM,0,0,0,0,0,0,,,
Ken-2091,Tara,Zia,Lara,Isabel,1,1KS,Lawrence,18-06-2004,Female,,,,,2008,,0,0,G207631709031,,17 Kelso Place,London,,,W8 5QD,Mr and Mrs Zia,Mr & Mrs B Zia,020 7361 1638,,,,SI,0,0,0,0,0,0,,,
Ken-2107,Jacqueline,Haas,Jacqueline,,0,RKS,More,30-06-2005,Female,Austrian,,CATH,,2009,,0,0,E207631709076,,5 Observatory Gardens,London,,,W8 7HY,Mr & Mrs Haas,Mr & Mrs M Haas,020 7361 1795,,20-01-2009,10:00,SI,0,0,0,0,0,0,,,
Ken-2112,Daisy,Nichols,Daisy,,0,RKN,Lawrence,19-05-2005,Female,British,,,ENG,2009,,0,0,U207631709077,,8 Douro Place,London,,,W8 5PH,Mr & Mrs Nichols,Mr & Mrs J C Nichols,020 7368 6574,,20-01-2009,09:00,SI,0,0,0,0,0,0,,,
Ken-2118,Allegra,Slesinger,Allegra,Tindall Grace,0,RKN,Becket,22-08-2005,Female,British,,,ENG,2009,,0,0,H207631709078,,6 Hale House,34 De Vere Gardens,London,,W8 5AQ,Mr & Mrs Slesinger,Mr & Mrs T J Slesinger,020 7937 4654,,29-01-2009,09:00,,0,0,0,0,0,0,,,
Ken-2149,Eliza,Greengross,Eliza,May,0,RKN,More,25-10-2004,Female,British,,NO,ENG,2009,,0,0,W207631709032,,4 Adie Road,London,,,W6 0PW,Mr & Mrs Greengross,Mr & Mrs M Greengross,020 7371 6059,,19-01-2009,09:00,SI,0,0,0,0,0,0,,,
Ken-2155,Martha,Hampel,Martha,,0,RKE,More,18-12-2004,Female,British,,,ENG,2009,,0,0,K207631709033,,17 Kildare Gardens,London,,,W2 5JS,Mr & Mrs Hampel,Mr & Mrs A Hampel,020 7229 1021,,19-01-2009,10:00,SI,0,0,0,0,0,0,,,
Ken-2156,Nell,Hampel,Nell,,0,RKS,More,18-12-2004,Female,British,,,ENG,2009,,0,0,Z207631709034,,17 Kildare Gardens,London,,,W2 5JS,Mr & Mrs Hampel,Mr & Mrs A Hampel,020 7229 1021,,19-01-2009,10:00,SI,0,0,0,0,0,0,,,
Ken-2160,Mia,Hensher-Goodlad,Mia,Bella,0,RKE,More,25-01-2005,Female,British,,,ENG,2009,,0,0,H207631709080,,41 De Vere Gardens,Kensington,London,,W8 5AW,Mrs Hensher-Goodlad,Mrs K Hensher-Goodlad,020 7225 2314,,23-01-2009,11:00,,0,0,0,0,0,0,,,
Ken-2165,Victor,Hogset,Victor,Victor,0,RKE,More,22-10-2004,Male,Norwegian,,,,2009,,0,0,N207631709035,,Flat 13,Kent House,34 Kensington Court,London,W8 5BE,Mr & Mrs Hogset,Mr & Mrs S Hogset,020 7368 6221,,22-01-2009,09:00,,0,0,0,0,0,0,,,
Ken-2169,Serena,Jabre,Serena,,0,RKE,More,24-11-2004,Female,Lebanese,,,ENG,2009,,0,0,C207631709036,,"Flat 6, 29 Palace Gate",London,,,W8 5LY,Mr & Mrs Jabre,Mr & Mrs K Jabre,020 7589 7782,,19-01-2009,09:00,SI,0,0,0,0,0,0,,,
Ken-2171,Laetitia,Jenkins,Laetitia,Isabel,0,RKE,Hardy,09-02-2005,Female,British,,,ENG,2009,,0,0,X207631709081,,Flat 3,17 Gledhow Gardens,London,,SW5 0AY,Mr Jenkins & Ms Koppenberg,Mr A Jenkins & Ms M Koppenberg,020 7370 6670,,23-01-2009,11:00,,0,0,0,0,0,0,,,
Ken-2172,Darius,Jobanputra,Darius,,0,RKE,Lawrence,14-12-2004,Male,British,,,ENG,2009,,0,0,L207631709105,,Flat 9,10 Ennismore Gardens,London,,SW7 1NP,Mr & Mrs Jobanputra,Mr & Mrs K Jobanputra,020 7589 7158,,22-01-2009,11:00,WM,0,0,0,0,0,0,,,
Ken-2187,Theodora,McManus,Theodora,Marley,0,RKS,Hardy,11-03-2005,Female,American,,,ENG,2009,,0,0,L207631709082,,Suite 154,272 Kensington High Street ,London,,W8 6ND,Mr & Mrs McManus,Mr & Mrs J McManus,020 8964 3161,,26-01-2009,09:00,,0,0,0,0,0,0,,,
Ken-2192,Delphine,Matta-Brown,Delphine,,0,RKN,More,01-01-2005,Female,Italian,,,,2009,,0,0,A207631709083,,26 Upbrook Mews,London,,,W2 3HG,Ms Brown,Ms C Brown,,,27-01-2009,10:00,,0,0,0,0,0,0,,,
Ken-2202,Arthur,Osborne-Young,Arthur,Quentin,0,RKS,More,14-11-2004,Male,British,,CATH,ENG,2009,,0,0,R207631709037,,19 Alexander Street,London,,,W2 5NT,Mr & Mrs Osborne-Young,Mr & Mrs W Osborne-Young,020 7727 1788,,19-01-2009,09:00,SI,0,0,0,0,0,0,,,
Ken-2209,Hubert,Read,Hubert,Patrick,0,RKS,More,21-05-2005,Male,British,,,ENG,2009,,0,0,P207631709084,,32 Chepstow Road,London,,,W2 5BE,Mr & Mrs Read,Mr & Mrs R Read,020 7792 2727,,20-01-2009,09:00,SI,0,0,0,0,0,0,,,
Ken-2217,Liberty,Samuel,Liberty,Blossom,0,RKE,Hardy,01-01-2005,Female,British,,NO,,2009,,0,0,D207631709085,,46 Abingdon Villas,London,,,W8 6XD,Mr & Mrs Samuel,Mr & Mrs R Samuel,020 7565 0769,,23-01-2009,09:00,,0,0,0,0,0,0,,,
Ken-2223,Caitlin,Spielmann,Caitlin,Kelly,0,RKS,Becket,22-11-2004,Female,American,,CATH,ENG,2009,,0,0,V207631709039,,8 Hamston House,Kensington Court Place,London,,W8 5BL,Mr & Mrs Spielmann,Mr & Mrs K Spielmann,020 7376 0021,,19-01-2009,09:00,SI,0,0,0,0,0,0,,,
Ken-2224,Maximilian,Sponer,Maximilian,Ernest,0,RKS,Becket,13-12-2004,Male,German,,CATH,,2009,,0,0,F207631709040,,58 Addison Road,London,,,W14 8JJ,Mr & Mrs Sponer,Mr & Mrs J Sponer,020 7751 1303,,22-01-2009,11:00,,0,0,0,0,0,0,,,
Ken-2226,Matteus,Stephens,Matteus,Peter,0,RKN,Hardy,19-03-2005,Male,American,,CATH,ENG,2009,,0,0,T207631709086,,Flat 1,13 Lexham Gardens,London,,W8 5JJ,Mr & Mrs Stephens,Mr & Mrs P Stephens,020 7376 2669,,26-01-2009,09:00,,0,0,0,0,0,0,,,
Ken-2236,Annabel,Wickham,Annabel,Leigh,0,RKS,Lawrence,20-01-2005,Female,American,,,ENG,2009,,0,0,G207631709087,,48 Stanford Road,London,,,W8 5PZ,Mr & Mrs Wickham,Mr & Mrs K Wickham,020 7937 9344,,19-01-2009,10:00,SI,0,0,0,0,0,0,,,
Ken-2240,Angelika,Woodruff,Angelika,Elouise,0,RKN,Hardy,24-09-2004,Female,British,,,ENG,2009,,0,0,V207631709041,,147 Percy Road,London,,,W12 9QJ,Mr Woodruff & Ms Samarina-Woodruff,Mr S A Woodruff & Ms A Samarina-Woodruff,020 8740 5400,,21-01-2009,10:00,,0,0,0,0,0,0,,,
Ken-2242,Leila,Younes,Leila,,0,RKS,Hardy,26-12-2004,Female,British,,CATH,ENG,2009,,0,0,J207631709042,,Flat 4,35 Queens Gate Gardens,London,,SW7 5RR,Mr & Mrs Younes,Mr & Mrs N Younes,020 7581 8558,,19-01-2009,10:00,,0,0,0,0,0,0,,,
Ken-2268,Nouri,Sheibani,Nouri,,0,RKE,Hardy,18-06-2005,Male,British,,CATH,,2009,,0,0,W207631709088,,8 Upper Philimore Gardens,London,,,W8 7HA,Mr & Mrs Sheibani,Mr & Mrs K Sheibani,020 7937 6767,,28-01-2009,10:00,,0,0,0,0,0,0,,,
Ken-2272,Sebastian,Vanger,Sebastian,,0,RKE,Lawrence,20-04-2005,Male,British,,CATH,ENG,2009,,0,0,K207631709089,,Flat 1,66 Cadogan Square,London,,SW1X 0EA,Mr and Mrs Vanger,Mr & Mrs A Vanger,07702 197 300,,29-01-2009,09:00,,0,0,0,0,0,0,,,
Ken-2275,Elias,Wisnia,Elias,,0,RKS,Lawrence,29-05-2005,Male,French,,,ENG,2009,,1,1,W207631709090,,79 Cornwall Gardens,London,,,SW7 4AZ,Mr & Mrs Wisnia,Mr & Mrs S Wisnia,020 3155 2006,,27-01-2009,11:00,LR,0,0,0,0,0,0,,,
Ken-2277,Laith,Gordon,Laith,,1,1KE,More,09-12-2003,Male,,,,,2008,,0,0,P207631708054,,50 Victoria Road,London,,,W8 5RQ,Mr and Mrs Gordan,Mr & Mrs L Gordan,020 7937 8033,,,,SI,0,0,0,0,0,0,,,
Ken-2281,Skyler,Sweidan,Skyler,,1,1KS,More,12-06-2004,Female,,,,,2008,,0,0,Y207631709043,,11 Sumner Place,London,,,SW7 3EE,Mr and Mrs Sweidan,Mr & Mrs A Sweidan,020 7581 4420,,,,SI,0,0,0,0,0,0,,,
Ken-2398,Nora,Rotman,Nora,,1,1KN,Becket,02-10-2003,Female,Swiss,,,,2008,,0,0,D207631708055,,28 Holland Park,London,,,W11 3TA,Mr and Mrs Rotman,Mr & Mrs S Rotman,020 7229 1834,,,,WM,0,0,0,0,0,0,,,
Ken-2399,Sacha,Rotman,Sacha,,0,RKN,Becket,28-07-2005,Male,Swiss,,,,2009,,0,0,K207631709091,,28 Holland Park,London,,,W11 3TA,Mr & Mrs Rotman,Mr & Mrs S Rotman,020 7229 1834,,20-01-2009,10:00,SI,0,0,0,0,0,0,,,
Ken-2435,Fardad,Khayami,Fardad,,5,5KS,Hardy,20-07-2000,Male,,,,,2008,,0,0,Y207631705037,,The Penthouse,22 Cadogan Place ,London,,SW1X 9SA,Mr & Mrs Khayami,Mr & Mrs A Khayami,020 3155 1164,,17-01-2008,,WM,0,0,0,0,0,0,,,
Ken-2477,Thomas,Farquhar,Rocky,,1,1KE,Becket,02-07-2004,Male,,,,,2008,,0,0,M207631709044,,25 Ladbroke Grove,London,,,W11 3AY,Mr and Mrs Farquhar,Mr & Mrs E Farquhar,020 7221 2486,,,,SI,0,0,0,0,0,0,,,
Ken-2531,Gigi,Jones,Gigi,,1,1KE,More,24-02-2004,Female,,,,,2008,,0,0,Q207631709046,,4 Vicarage Gardens,,,,W8 4AH,Mr Jones and Mrs Corroon Jones,Mr M Jones & Mrs K Corroon Jones,020 7221 7102,,21-01-2008,,SI,0,0,0,0,0,0,,,
Ken-2532,Vivian,Jones,Vivian,,1,1KE,More,05-05-2004,Female,,,,,2008,,0,0,E207631709047,,49 Scarsdale Villas,London,,,W8 6PU,Mr and Mrs Jones,Mr & Mrs J Jones,020 7937 4075,,,,SI,0,0,0,0,0,0,,,
Ken-2557,William,Lord,William,,1,1KE,Hardy,21-03-2004,Male,,,,,2008,,0,0,U207631709048,,29 Hereford Square,London,,,SW7 4NB,Mr and Mrs Lord,Mr & Mrs T Lord,020 7244 0262,,,,SI,0,0,0,0,0,0,,,
Ken-2564,Samuel,Marson,Samuel,,1,1KS,Becket,13-05-2004,Male,,,,,2008,,0,0,H207631709049,,20 Cottesmore Court,Stanford Road,London,,W8 5QN,Mr and Mrs Marson,Mr & Mrs P Marson,020 7938 3288,,,,SI,0,0,0,0,0,0,,,
Ken-2595,Maya,Owens,Maya,,3,3KN,Hardy,21-06-2002,Female,,,,,2008,,0,0,D207631707054,MOwe1@Ken.thomasvle.org,42 St George's Court,Gloucester Road,London,,SW7 4RA,Mr and Mrs Owens,Mr & Mrs B Owens,020 7584 1274,,,,,0,0,0,0,0,0,,,
Ken-2620,Caroline,Rijkse,Caroline,,2,2KS,Lawrence,27-09-2002,Female,,,,,2008,,0,0,T207631707055,,7 Palace Gardens Terrace,London,,,W8 4SA,Mr Rijkse & Ms Auxenfans,Mr M Rijkse & Ms E Auxenfans,020 7727 8364,,,,WM,0,0,0,0,0,0,,,
Ken-2645,James,Sharp,James,,5,5KS,More,22-06-2000,Male,British,,CATH,,,,0,0,M207631705038,,3 Bassett Road,London,,,W10 6LA,Mr and Mrs Sharp,Mr & Mrs C Sharp,020 79938 147,,17-01-2008,,WM,0,0,0,0,0,0,,,
Ken-2678,Niklas,Vainio,Niklas,,1,1KS,Becket,03-02-2004,Male,,,,,2008,,0,0,U207631709050,,68 Eaton Square,London,,,SW1W 9AR,Mr and Mrs Vainio,Mr & Mrs P Vainio,020 7245 0233,,,,SI,0,0,0,0,0,0,,,
Ken-2699,Teymour,Younes,Teymour,,1,1KS,Hardy,11-09-2003,Male,British,,CATH,,2008,,0,0,G207631708057,,Flat 4,35 Queens Gate Gardens,London,,SW7 5RR,Mr and Mrs Younes,Mr & Mrs N Younes,020 7581 8558,,,,SI,0,0,0,0,0,0,,,
Ken-2814,Fleur,Le Hodey,Fleur,Colette Nicole Marie,0,RKN,Lawrence,01-10-2004,Female,Belgian,,CATH,ENG,2009,,1,1,H207631709051,,24 Astwood Mews ,London,,,SW7 4DE,Mr & Mrs Le Hodey,Mr & Mrs V Le Hodey,020 7835 1703,,21-01-2009,10:00,,0,0,0,0,0,0,,,
Ken-2845,Anoushka,Kirsch,Anna,Maria,0,RKN,Becket,09-05-2005,Female,German,,ROM,ENG,2009,,1,1,Z207631709092,,25 Palace Gardens Terrace,London,,,W8 4SA,Ms Shaftan,Ms E Shaftan,020 7314 4913,,27-01-2009,10:00,WM,0,0,0,0,0,0,,,
Ken-2870,Ariana,Barinstein,Ariana,,0,RKN,Lawrence,21-05-2005,Female,American,,NO,ENG,2009,,1,1,A207631709106,,2 Braemar Mansions,Cornwall Gardens,London,,SW7 4AF,Mr & Mrs Barinstein,Mr & Mrs D Barinstein,020 7938 2408,,,,WM,0,0,0,0,0,0,,,
Ken-2900,Thomas,Laubi,Thomas,Laubi,0,RKN,Lawrence,04-11-2004,Male,Swedish,,PROT,ENG,2009,,0,0,X207631709052,,Flat 4,52 Onslow Gardens,London,,SW7 3QA,Mr & Mrs Laubi,Mr & Mrs G Laubi,020 7373 0533,,19-01-2009,09:00,SI,0,0,0,0,0,0,,,
Ken-2919,James,Black,James,Arthur,0,RKN,Hardy,08-09-2004,Male,British,,,ENG,2009,,0,0,L207631709053,,Flat 30,115 Westbourne Terrace,London,,W2 6QT,Mr & Mrs Black,Mr & Mrs A Black,020 7401 1110,,21-01-2009,09:00,WM,0,0,0,0,0,0,,,
Ken-3068,Kyle,Newman,Kyle,,5,5KN,Lawrence,17-08-2000,Male,American,,,ENG,2008,,0,0,B207631705039,,8 Victoria Road,London,,,W8 5RD,Mr and Mrs Newman,Mr & Mrs K Newman,020 7937 0678,,18-04-2008,09:00,WM,0,0,0,0,0,0,,,
Ken-3069,Talya,Newman,Talya,Rose,3,3KN,Lawrence,26-11-2001,Female,American,,,ENG,2008,,0,0,A207631706051,TNew1@Ken.thomasvle.org,8 Victoria Road,London,,,W8 5RD,Mr and Mrs Newman,Mr & Mrs K Newman,020 7937 0678,,18-04-2008,09:00,WM,0,0,0,0,0,0,,,
Ken-3070,Melissa,Farquhar,Melissa,,4,4KS,Becket,21-01-2001,Female,British,,,ENG,2008,,0,0,P207631706052,,25 Ladbroke Grove,London,,,W11 3AY,Mr and Mrs Farquhar,Mr & Mrs E Farquhar,020 7221 2486,,,,WM,0,0,0,0,0,0,,,
Ken-3071,Harrison,Scott,Harrison,,1,1KE,Becket,30-12-2003,Male,British,,,ENG,2008,,0,0,W207631708058,,36 Woodsford Square,London,,,W14,Mr and Mrs Scott,Mr & Mrs W Scott,020 7602 8342,,,,WM,0,0,0,0,0,0,,,
Ken-3072,Cecilia,Colao,Cecilia,,1,1KS,More,31-03-2004,Female,Italian,,CATH,ENG,2008,,0,0,A207631709054,,22 Bramham Gardens,London,,,SW5 0JE,Mr Colao and Mrs Cassinis,Mr V Colao & Mrs S Cassinis,020 7244 1095,,,,WM,0,0,0,0,0,0,,,
Ken-3073,Alexandra,Fischer,Evie,,4,4KE,More,22-06-2001,Female,American,,,ENG,2008,,0,0,D207631706053,,3-4 Branham Gardens,Flat 7,London,,SW5 0JQ,Ms Fischer,Ms C Fischer,020 7370 3631,,15-01-2008,,WM,0,0,0,0,0,0,,,
Ken-3074,Cordelia,Lamming,Cordelia,,1,1KE,Hardy,12-09-2003,Female,British,,CATH,ENG,2008,,0,0,K207631708059,,2 Holland Park Road,London,,,W14 8LZ,Mr and Mrs Lamming,Mr & Mrs G Lamming,020 7603 6959,,,,SI,0,0,0,0,0,0,,,
Ken-3076,Lorenzo,Warrack,Lorenzo,,5,5KS,Lawrence,19-01-2000,Male,British,,CATH,ENG,2008,,0,0,M207631705040,,279A Westbourne Park Road,London,,,W11 1EE,Mr and Mrs Warrack,Mr & Mrs N Warrack,020 7727 5018,,17-01-2008,,WM,0,0,0,0,0,0,,,
Ken-3124,Jared,Roy,Jared,,3,3KN,More,18-03-2002,Male,American,,CATH,ENG,2008,,0,0,G207631707056,JRoy1@Ken.thomasvle.org,57 Abingdon Road,London,,,W8 6AN,Mr and Mrs Roy,Mr & Mrs Roy,020 7938 1373,,03-06-2008,,WM,0,0,0,0,0,0,,,
Ken-3132,Celeste,Hoberman,Celeste,,0,RKS,More,23-03-2005,Female,Portugese,,CATH,ENG,2009,,0,0,N207631709093,,2 Douro Place,London,,,W8 5PH,Mr and Mrs Hoberman,Mr & Mrs Hoberman,07711 710 250,,19-01-2009,11:00,SI,0,0,0,0,0,0,,,
Ken-3138,Leo,Field,Leo,Phillip,0,RKS,Becket,31-08-2004,Male,British,,,ENG,2009,,0,0,P207631709055,,70 Westbourne Park Road,London,,,W2 5PJ,Mr Field and Ms Kyner,Mr E Field & Ms J Kyner,020 7229 5662,,21-01-2009,09:00,WM,0,0,0,0,0,0,,,
Ken-3201,Gilda,Pretolani,Gilda,,1,1KE,Lawrence,13-02-2004,Female,,,,ENG,2009,,0,0,D207631709056,,30 Abingdon Court,Abingdon Villas,London,,W8 6BT,Mr Pretolani and Mrs Marini,Mr M Pretolani & Mrs M Marini,020 7376 4380,,12-01-2009,,WM,0,0,0,0,0,0,,,
Ken-3203,Scarlette,Rijkse,Scarlette,,1,1KE,Lawrence,21-07-2004,Female,New Zealand,,ANG,ENG,2008,,0,0,T207631709057,,7 Palace Garden Terrace,London,,,W8 4SA,Mr Rijkse and Mrs Auxefans,Mr M Rijkse & Mrs E Auxefans,020 7727 8364,,24-06-2008,09:00,WM,0,0,0,0,0,0,,,
Ken-3204,Gianluigi,Tosti di Valminuta,Gianluigi,,6,6KE,Lawrence,25-09-1998,Male,Italian,,,ENG,2009,,0,0,X207631703015,,1 Wynnstay Gardens,London,,,W8 6UP,Mr and Mrs Tosti di Valminuta,Mr & Mrs G M Tosti di Valminuta,020 7745 4002,,,,WM,0,0,0,0,0,0,,,
Ken-3205,Paul,Schell,Paul,John,3,3KS,Lawrence,07-01-2002,Male,French,,,ENG,2008,,0,0,W207631707057,,9 Queen Elm Square,London,,,SW3 6ED,Baron and Baroness Schell,Baron & Baroness Schell,020 7823 3314,,02-06-2008,,WM,0,0,0,0,0,0,,,
Ken-3206,Vedant,Hinduja,Vedant,,3,3KS,Lawrence,17-11-2001,Male,Indian,,,ENG,2008,,0,0,T207631706054,,Flat 2,24 Carlton House Terrace,London,,SW1Y 5AP,Mr and Mrs Hinduja,Mr & Mrs D Hinduja,020 7839 3525,,,,WM,0,0,0,0,0,0,,,
Ken-3207,Thibault,Lyttleton,Thibault,,0,RKE,More,03-06-2005,Male,French,,,ENG,2009,,0,0,C207631709094,,88 Palace Gardens Terrace,London,,,W8 4RS,Mr and Mrs Lyttleton,Mr & Mrs M Lyttleton,07814 004 387,,27-01-2009,11:00,WM,0,0,0,0,0,0,,,
Ken-3209,Isabelle,Kenney-Herbert,Issy,,5,5KS,Hardy,28-07-2000,Female,Australian,,,ENG,2008,,0,0,B207631705041,,15A Ladbroke Terrace,London,,,W11 3PG,Mr Kenney-Herbert & Ms Hennessy,Mr T Kenney-Herbert & Ms M Hennessy,020 7792 7873,,13-06-2008,,WM,0,0,0,0,0,0,,,
Ken-3210,Griffin,Massey,Griffin,,3,3KS,Hardy,12-03-2002,Male,American,,CATH,ENG,2008,,0,0,K207631707058,,70 Hornton Street,London,,,W8 4NU,Mr and Mrs Massey,Mr & Mrs R Massey,020 7937 1842,,,,WM,0,0,0,0,0,0,,,
Ken-3211,Annika,Trobman,Annika,Jill,4,4KE,Hardy,09-08-2001,Female,American,,,ENG,2008,,0,0,G207631706055,,68 Palace Court,London,,,W2 4JB,Mr and Mrs Trobman,Mr & Mrs R Trobman,020 7727 5617,,04-07-2008,,WM,0,0,0,0,0,0,,,
Ken-3212,Madeline,Trobman,Madeline,,5,5KN,Hardy,13-10-1999,Female,American,,,ENG,2008,,0,0,B207631704040,,68 Palace Court,London,,,W2 4JB,Mr and Mrs Trobman,Mr & Mrs R Trobman,020 7727 5617,,04-07-2008,,WM,0,0,0,0,0,0,,,
Ken-3213,Amartya,Kaul,Amartya,,6,6KN,Lawrence,12-05-1999,Male,Indian,,,ENG,2008,,0,0,Q207631704041,,Flat A ,12 Bolton Gardens,London,,SW5 0AL,Mr Kaul,Mr A Kaul,020 7370 4435,,,,WM,0,0,0,0,0,0,,,
Ken-3214,Mia,Benhamou,Mia,,3,3KE,Becket,21-09-2001,Female,French,,,,2008,,0,0,W207631706056,,Flat E,64-65 Cornwall Gardens,London,,SW7 4BD,Mr and Mrs Benhamou,Mr & Mrs M Benhamou,020 7937 0733,,,,WM,0,0,0,0,0,0,,,
Ken-3215,Sacha,Benhamou,Sacha,,2,2KE,Becket,20-05-2003,Male,French,,,ENG,2008,,0,0,W207631708060,,Flat E,64-65 Cornwall Gardens,London,,SW7 4BD,,,020 7937 0733,,,,FU,0,0,0,0,0,0,,,
Ken-3216,Maxwell,Owens,Max,,1,1KE,Hardy,24-10-2003,Male,,,,,2008,,0,0,K207631708061,,42 St George's Court,Gloucester Road,London,,SW7 4RA,Mr and Mrs Owens,Mr & Mrs B Owens,020 7584 1274,,,,,0,0,0,0,0,0,,,
Ken-3300,Lucas,Suarez,Lucas,,0,RKS,Lawrence,06-04-2005,Male,American,,ROM,,2009,,0,0,F207631709096,,Flat 7,27 Queens Gate Terrace,London,,SW7 5PR,Mr and Mrs Suarez,Mr & Mrs E Suarez,020 7584 1068,,19-01-2009,11:00,SI,0,0,0,0,0,0,,,
Ken-3349,Reem,Rajab,Reem,,1,1KN,Lawrence,13-10-2003,Female,,,,,2009,,0,0,Z207631708062,,Flat 25 Huntsmore House,35 Pembroke Road,London,,W8 6LZ,Mr Rajab and Mrs Ilieva-Rajab,Mr A Rajab & Mrs C Ilieva-Rajab,07961 407 473,,12-01-2009,,LR,0,0,0,0,0,0,,,
Ken-3350,Carter,Crowley,Carter,Joseph,0,RKN,More,31-10-2004,Male,American,,,ENG,2009,,0,0,G207631709058,,94 Chelsea Park Gardens,London,,,SW3 6AE,Mr and Dr Crowley,Mr W F Crowley III & Dr M Crowley,020 7352 8351,,22-01-2009,09:00,WM,0,0,0,0,0,0,,,
Ken-3365,Zulfiqar,Hoosenally,Zulfiqar,Thomas,0,RKS,Hardy,11-03-2005,Male,British,,,,2009,,0,0,V207631709097,,22 Lansdowne Road,London,,,W11 3LL,Mr and Mrs Hoosenally,Mr & Mrs R Hoosenally,020 7313 9717,,19-01-2009,11:00,WM,0,0,0,0,0,0,,,
Ken-3377,Bertie,Adam,Bertie,Hotspur,0,RKE,Hardy,07-09-2004,Male,British,,,ENG,2009,,0,0,W207631709059,,53 Albion Gate,Hyde Park Place,London,,W2 2LG,Mr and Mrs Adam,Mr & Mrs P B Adam,,,21-01-2009,09:00,LR,0,0,0,0,0,0,,,
Ken-3403,Jack,Olsher,Jack,Haydn,0,RKE,Becket,07-06-2005,Male,American,,,ENG,2009,,0,0,J207631709098,,21 Launceston Place,London,,,W8 5RL,Mr and Mrs Olsher,Mr & Mrs B A Olsher,020 7937 9686,,20-01-2009,09:00,SI,0,0,0,0,0,0,,,
Ken-3415,Lucas,Shand Kydd,Lucas,,0,RKN,More,23-12-2004,Male,British,,,ENG,2009,,0,0,G207631709060,,9 Dunsany Road,London,,,W14 0JP,Mr and Mrs Shand Kydd,Mr & Mrs C Shand Kydd,020 7603 7023,,23-01-2009,10:00,WM,0,0,0,0,0,0,,,
Ken-3453,Ela,Emecen,Ela,,0,RKS,Hardy,07-10-2004,Female,Turkish,,,,2009,,0,0,W207631709061,,Flat 1,37 Lennox Gardens,London,,SW1X 0DF,Mr and Mrs Emecen,Mr & Mrs H Emecen,020 7581 0482,,21-01-2009,11:00,LR,0,0,0,0,0,0,,,
Ken-3476,Ghilla,Tosti di Valminuta,Ghilla,,4,4KN,Lawrence,20-06-2000,Female,Italian,,CATH,,2009,,0,0,Q207631705042,,1 Wynnstay Gardens,London,,,W8 6UP,Mr and Mrs Tosti di Valminuta,Mr & Mrs G M Tosti di Valminuta,020 7745 4002,,,,,0,0,0,0,0,0,,,
Ken-3523,Naomi,Harbour,Naomi,,0,RKN,More,28-10-2004,Female,British,,,,2009,,0,0,K207631709062,,15 Pembroke Gardens,London,,,W8 6HT,Mr and Mrs Harbour,Mr & Mrs G Harbour,020 7602 5403,,22-01-2009,10:00,WM,0,0,0,0,0,0,,,
Ken-3555,Zayd,Damirji,Zayd,,1,,,22-06-2005,Male,,,,,2009,,0,0,Q207631709100,,Flat 5,69 Princes Gate,London,,SW7 2PA,Mr and Mrs Damirji,Mr H & Mrs G A Damirji,02075818878,,,,,0,0,0,0,0,0,,,
Ken-3617,James,Moorhouse,Jamie,Alexander,0,RKS,Becket,11-08-2005,Male,British,,,ENG,2009,,0,0,T207631709111,,4 Campden House,29 Sheffield Terrace,London,,W8 7NF,Mr Moorhouse and Ms Randall,Mr A Moorhouse & Ms T Randall,020 7229 3317,,18-06-2009,10:00,,0,0,0,0,0,0,,,
Ken-3643,Willow,Petrobelli,Willow,,0,RKE,Lawrence,12-07-2005,Female,British,,CATH,ENG,2009,,0,0,P207631709107,,22 Upper Phillimore Gdns,London,,,W8 7HA,Miss Petrobelli,Miss P Petrobelli,07939542426,,,,,0,0,0,0,0,0,,,
Ken-3650,Jemima,Barroll Brown,Jemima,,2,2KE,Lawrence,01-02-2003,Female,British,,,ENG,2009,,0,0,H207631709103,,22 Argyll Road,London,,,W8 7BG,Mr and Mrs Barroll Brown,Mr & Mrs J Barroll Brown,,,,,LR,0,0,0,0,0,0,,,
Ken-3651,John,Barroll Brown,Jack,,4,4KN,Lawrence,18-12-2000,Male,British,,,ENG,2009,,0,0,X207631709104,,22 Argyll Road,London,,,W8 7BG,Mr and Mrs Barroll Brown,Mr & Mrs J Barroll Brown,,,,,LR,0,0,0,0,0,0,,,
Ken-3686,Jan,van Heusde,Jan,,3,3KE,Lawrence,21-08-2001,Male,Dutch,,CATH,,2009,,0,0,G207631709112,,14 Saint Petersburgh Place,London,,,W2 4LB,Mr and Mrs van Heusde,Mr & Mrs J-K van Heusde,020 7221 0713,,,,LR,0,0,0,0,0,0,,,
Ken-3700,Erik,Haraldson,Erik,,5,5KS,Lawrence,13-12-1999,Male,,,,,2009,,0,0,W207631709113,,88 Elm Park Road,London,,,SW3 6AU,Mr and Mrs Haraldson,Mr & Mrs J Haraldson,020 7351 0062,,,,SS,0,0,0,0,0,0,,,
Ken-3705,Alessandro,Gallo,Alessandro,,5,5KS,Hardy,09-02-2000,Male,,,CATH,ENG,2009,,0,0,E207631709101,,129 Oakwood Court,Abbotsbury Road,London,,W14 8LA,Mr and Mrs Gallo,Mr & Mrs F Gallo,020 7602 5329,,,,WM,0,0,0,0,0,0,,,
Ken-3706,Massimiliano,Gallo,Max,,3,3KN,Hardy,27-06-2002,Male,,,CATH,ENG,2009,,0,0,U207631709102,MGal1@Ken.thomasvle.org,129 Oakwood Court,Abbotsbury Road,London,,W14 8LA,Mr and Mrs Gallo,Mr & Mrs F Gallo,020 7602 5329,,,,WM,0,0,0,0,0,0,,,
Ken-3715,Mauk,Vigeveno,Mauk,,1,1KS,Hardy,16-09-2003,Male,Dutch,,,ENG,2009,,0,0,T207631709109,,29 Clareville Street,London,,,SW7 5AJ,Mr Vigeveno and Ms Vigeveno Verbunt,Mr H H Vigeveno & Ms A E E Vigeveno Verbunt,020 7373 7351,,29-04-2009,,WM,0,0,0,0,0,0,,,
Ken-3749,Amber,Mided,Amber,,1,1KS,More,22-05-2004,Female,British,,NO,ENG,2009,,0,0,,,176 Oakwood Court,London,,,W14 8JE,Mr and Mrs Mided,Mr & Mrs J Mided,020 7371 4722,,29-04-2009,09:00,WM,0,0,0,0,0,0,,,
Ken-3778,Alexander,Rivers,Alexander,,3,3KS,Becket,27-12-2001,Male,British,,,ENG,2009,,0,0,D207631709108,,67 Palace Gardens Terrace,London,,,W8 4RU,Mr and Mrs Rivers,Mr & Mrs A J C Rivers,020 7221 2920,,,,WM,0,0,0,0,0,0,,,
Ken-3826,William,Sewell,Billy,,3,3KS,More,18-03-2002,Male,British,,,ENG,2009,,0,0,K207631709114,,80 Portland Road,London,,,W11 4LQ,Mrs Ricker,Mrs A Ricker,020 7727 2024,,15-06-2009,09:00,WM,0,0,0,0,0,0,,,
Ken-3864,Sebastiano,Fraser-Taliente,Sebbie,,1,1KN,Lawrence,08-05-2004,Male,British,,ROM,ENG,2009,,0,0,R207631709118,,4 Alexander Street,London,,,W2 5NT,Mr Taliente and Ms Fraser,Mr D Taliente & Ms P Fraser,020 7727 6889,,,,SI,0,0,0,0,0,0,,,
Ken-4050,Finbar,Shorkey,Finn,,2,2KS,Hardy,22-09-2002,Male,,,,ENG,2009,,0,0,,,Flat 3,70-71 Prince's Square,London,,W2 4NY,Mr and Mrs Shorkey,Mr & Mrs D Shorkey,,,,,LR,0,0,0,0,0,0,,,
Ken-4104,Nolan,Shan,Nolan,,3,3KE,Becket,06-06-2002,Male,American,,,ENG,2009,,0,0,,,Flat 6,14 Elvaston Place,London,,SW7 5QF,Mr and Mrs Shan,Mr & Mrs E Shan,,,15-01-2010,09:00,LR,0,0,0,0,0,0,,,
