Name,StartTime,Duration,Group
P1,08:45:00,60,MiddleSchool
P2,09:50:00,60,MiddleSchool
P3,11:15:00,40,MiddleSchool
P4,12:00:00,40,MiddleSchool
P5,13:50:00,60,MiddleSchool
P6,14:55:00,60,MiddleSchool
P1,08:45:00,60,UpperSchool
P2,09:50:00,60,UpperSchool
P3,11:15:00,40,UpperSchool
P4,12:00:00,40,UpperSchool
P5,13:50:00,60,UpperSchool
P6,14:55:00,60,UpperSchool
